,Emission,Pulsing,Main shutter,IR shutter,Servo on,User interlock,Keyswitch,Power supply,Internal,Warning,fault,State,time,status_code
0,False,True,False,False,32,0,0,0,0,0,0,Initializing,1606939431.115623,1573232
1,False,True,False,False,32,0,0,0,0,0,0,Initializing,1606939431.115628,1573360
2,False,True,False,False,32,0,0,0,0,0,0,READY,1606939431.1156306,1638768
3,True,True,False,True,32,0,0,0,0,0,0,Turning on / optimizing,1606939431.1156335,2424889
4,True,True,True,True,32,0,0,0,0,0,0,Turning on / optimizing,1606939431.1156356,2424893
5,True,True,False,False,32,0,0,0,0,0,0,Turning on / optimizing,1606939431.115638,2490417
6,True,True,False,True,32,0,0,0,0,0,0,Turning on / optimizing,1606939431.1156409,2490425
7,True,True,True,True,32,0,0,0,0,0,0,Turning on / optimizing,1606939431.1156428,2490429
8,True,True,False,False,32,0,0,0,0,0,0,Turning on / optimizing,1606939431.115645,2555953
9,True,True,True,True,32,0,0,0,0,0,0,Turning on / optimizing,1606939431.1156473,2555965
10,True,True,False,False,32,0,0,0,0,0,0,Turning on / optimizing,1606939431.1156492,2621489
11,True,True,True,True,32,0,0,0,0,0,0,Turning on / optimizing,1606939431.1156514,2621501
12,True,True,False,False,32,0,0,0,0,0,0,Turning on / optimizing,1606939431.1156533,2752561
13,True,True,False,True,32,0,0,0,0,0,0,Turning on / optimizing,1606939431.1156554,2752569
14,True,True,True,True,32,0,0,0,0,0,0,Turning on / optimizing,1606939431.1156576,2752573
15,True,True,False,False,32,0,0,0,0,0,0,Turning on / optimizing,1606939431.11566,2818097
16,True,True,False,True,32,0,0,0,0,0,0,Turning on / optimizing,1606939431.1156623,2818105
17,True,True,True,True,32,0,0,0,0,0,0,Turning on / optimizing,1606939431.1156647,2818109
18,True,True,False,False,32,0,0,0,0,0,0,Turning on / optimizing,1606939431.1156669,2883633
19,True,True,False,True,32,0,0,0,0,0,0,Turning on / optimizing,1606939431.115669,2883641
20,True,True,True,True,32,0,0,0,0,0,0,Turning on / optimizing,1606939431.1156714,2883645
21,True,True,False,False,32,0,0,0,0,0,0,Turning on / optimizing,1606939431.1156735,2949169
22,True,True,False,True,32,0,0,0,0,0,0,Turning on / optimizing,1606939431.1156757,2949177
23,True,True,True,True,32,0,0,0,0,0,0,Turning on / optimizing,1606939431.1156778,2949181
24,True,True,False,False,32,0,0,0,0,0,0,Turning on / optimizing,1606939431.11568,3014705
25,True,True,True,True,32,0,0,0,0,0,0,Turning on / optimizing,1606939431.1156821,3014717
26,True,True,False,False,32,0,0,0,0,0,0,Turning on / optimizing,1606939431.1156843,3080241
27,True,True,False,True,32,0,0,0,0,0,0,Turning on / optimizing,1606939431.1156864,3080249
28,True,True,True,True,32,0,0,0,0,0,0,Turning on / optimizing,1606939431.115688,3080253
29,True,True,False,False,32,0,0,0,0,0,0,Turning on / optimizing,1606939431.1156902,3145777
30,True,True,False,True,32,0,0,0,0,0,0,Turning on / optimizing,1606939431.1156926,3145785
31,True,True,True,True,32,0,0,0,0,0,0,Turning on / optimizing,1606939431.1156945,3145789
32,True,True,False,False,32,0,0,0,0,0,0,Turning on / optimizing,1606939431.1156967,3211313
33,True,True,False,True,32,0,0,0,0,0,0,Turning on / optimizing,1606939431.1156983,3211321
34,True,True,True,True,32,0,0,0,0,0,0,Turning on / optimizing,1606939431.1157005,3211325
35,True,False,False,False,32,0,0,0,0,0,0,RUN,1606939431.1157024,3276851
36,True,False,True,False,32,0,0,0,0,0,0,RUN,1606939431.1157048,3276855
37,True,False,False,True,32,0,0,0,0,0,0,RUN,1606939431.115707,3276859
38,True,False,True,True,32,0,0,0,0,0,0,RUN,1606939431.1157088,3276863
39,True,False,False,False,32,0,0,0,0,0,0,RUN,1606939431.115711,3276979
40,True,False,True,True,32,0,0,0,0,0,0,RUN,1606939431.1157131,3276991
41,True,True,False,False,32,0,0,0,0,0,0,Moving to Align mode,1606939431.115715,3670065
42,True,True,False,False,32,0,0,0,0,0,0,Moving to Align mode,1606939431.1157174,3735601
43,True,False,False,False,32,0,0,0,0,0,0,ALIGN,1606939431.1157193,3932211
44,True,False,True,False,32,0,0,0,0,0,0,ALIGN,1606939431.1157217,3932215
45,True,False,False,True,32,0,0,0,0,0,0,ALIGN,1606939431.1157238,3932219
46,True,False,True,True,32,0,0,0,0,0,0,ALIGN,1606939431.1157258,3932223
47,True,True,False,False,32,0,0,0,0,0,0,,1606939431.1157281,4587569
48,True,True,False,False,32,0,0,0,0,0,0,,1606939431.1157305,4653105
