,ex_wl,centerIndex,filter_index,2w1_x,2w2_x,sfg_x,3w1,3w2,2w2-w1,2w1+w2,2w2+w1,2w1,2w2,sfg
0,725.0,0,1,336.5064540897538,626.1079833507633,7152.36643833354,2.4554460255155277,0.0,-276492.79324799153,0.0,0.0,336.5064540897538,626.1079833507633,7152.36643833354
1,725.0,1,1,173.2474381435189,126.56921934330381,2824.5876120446733,26.545830678309073,0.0,-139970.40830322774,0.0,0.0,173.2474381435189,126.56921934330381,2824.5876120446733
2,725.0,2,1,22.129208259611566,10.296424713230437,425.58951577405827,14.725444486567085,0.0,-357668.2584910965,0.0,0.0,22.129208259611566,10.296424713230437,425.58951577405827
3,725.0,3,1,60.4461514404265,58.00534439555486,1746.521420219379,-56.45880146443113,0.0,-94598.26579675765,0.0,0.0,60.4461514404265,58.00534439555486,1746.521420219379
4,725.0,4,1,58.64490124536457,25.49995192732294,919.3763384116196,-0.1177480100560615,0.0,-120939.84887875617,0.0,0.0,58.64490124536457,25.49995192732294,919.3763384116196
5,750.0,0,1,421.86562811024845,932.8275462959523,6485.884972848169,48.11514884733634,0.0,-145801.0495861458,0.0,0.0,421.86562811024845,932.8275462959523,6485.884972848169
6,750.0,1,1,242.16838622892183,372.25237656106526,3003.292438849189,85.69639780775645,0.0,-72942.01680560404,0.0,0.0,242.16838622892183,372.25237656106526,3003.292438849189
7,750.0,2,1,39.09761472879288,61.04788683936688,439.6783104928505,15.774094593387474,0.0,-232297.4241119009,0.0,0.0,39.09761472879288,61.04788683936688,439.6783104928505
8,750.0,3,1,88.88204483283391,311.0597207285964,1721.8716732775758,-33.1071406100661,0.0,-83133.90558230516,0.0,0.0,88.88204483283391,311.0597207285964,1721.8716732775758
9,750.0,4,1,82.92391221125764,226.53715726003352,1136.482861246997,-11.702392574477642,0.0,-112272.29790093738,0.0,0.0,82.92391221125764,226.53715726003352,1136.482861246997
10,775.0,0,1,382.98467745320306,1958.4796289302944,6540.745965596145,0.18704346757613166,0.0,0.0,0.0,0.0,382.98467745320306,1958.4796289302944,6540.745965596145
11,775.0,1,1,250.82361157074763,819.4231549349319,3227.8582130866157,67.77334111621849,0.0,0.0,0.0,0.0,250.82361157074763,819.4231549349319,3227.8582130866157
12,775.0,2,1,38.222439835470695,173.57666917147597,597.6270019718495,-21.820685897594842,0.0,0.0,0.0,0.0,38.222439835470695,173.57666917147597,597.6270019718495
13,775.0,3,1,96.73389853071001,541.3439500368695,1810.4048841374783,-58.23868180445885,0.0,0.0,0.0,0.0,96.73389853071001,541.3439500368695,1810.4048841374783
14,775.0,4,1,105.75524848028358,514.279269310371,1577.6092428141785,-12.910961622773925,0.0,0.0,0.0,0.0,105.75524848028358,514.279269310371,1577.6092428141785
15,800.0,0,1,465.57234785306593,1492.3253390370637,4452.419876713133,-1.889912008300712,0.12466946875,0.0,0.33827383392189436,-0.8146893714130153,465.57234785306593,1492.3253390370637,4452.419876713133
16,800.0,1,1,296.7456323186351,536.221162815509,2047.1716900722374,81.2660928899021,-0.079917241674733,0.0,0.7347328185604847,-0.8146877740025458,296.7456323186351,536.221162815509,2047.1716900722374
17,800.0,2,1,48.26058593342633,161.29771454844717,-18.381453500894093,-43.98799703156112,-0.07991724167473298,0.0,0.23733473102014746,-0.987150970769835,48.26058593342633,161.29771454844717,-18.381453500894093
18,800.0,3,1,128.17435800396757,350.9665327076911,1104.4018154970415,-46.54520041436501,0.6477806281996031,0.0,0.5205948064795678,0.9609442532312985,128.17435800396757,350.9665327076911,1104.4018154970415
19,800.0,4,1,137.2616414912006,458.84742121220665,1331.18314006033,-26.776694994127297,-0.12466946875000005,0.0,-0.27891240814557294,0.43581805170066057,137.2616414912006,458.84742121220665,1331.18314006033
20,825.0,0,1,512.1867104506944,1609.9981044788778,4416.498638243344,-10.345608943013644,0.020772291139863897,0.0,1.8038313612886356,0.021318568226121538,512.1867104506944,1609.9981044788778,4416.498638243344
21,825.0,1,1,331.11104153575604,757.5998465144738,2331.817380649201,95.88510982998889,0.020772291139863897,0.0,1.3952500220440625,-0.08203233229775692,331.11104153575604,757.5998465144738,2331.817380649201
22,825.0,2,1,52.70325808922821,181.51870664531364,1.0830926337854017,-66.23638179778527,0.010386145569931947,0.0,-0.2000614276176258,-0.08203233229775694,52.70325808922821,181.51870664531364,1.0830926337854017
23,825.0,3,1,140.0591055310101,471.88495239308764,1181.7067296827797,-50.793398815736055,-0.21818050079020418,0.0,-0.17394697863237418,-0.08203233229775693,140.0591055310101,471.88495239308764,1181.7067296827797
24,825.0,4,1,153.69837252354034,528.1000544119782,1339.100611816057,-13.184074183599705,-0.08312488647027222,0.0,0.0,1.0408340855860843e-17,153.69837252354034,528.1000544119782,1339.100611816057
25,850.0,0,1,554.6120745953466,1512.1017603257503,4131.9369362313855,-46.24938172517375,-0.08100150209095319,0.0,-0.0015689573369570137,1.0954290795350423,554.6120745953466,1512.1017603257503,4131.9369362313855
26,850.0,1,1,352.2199618531988,801.0263960198837,2265.672014082671,102.15068662804401,1.0889495295005989,0.0,-0.12310051141304301,-0.1489157685729929,352.2199618531988,801.0263960198837,2265.672014082671
27,850.0,2,1,59.14059781206455,143.6554187679053,3.8583454722604595,-110.7460962564154,0.28113289132145736,0.0,-0.12466946874999998,-0.10013478500186418,59.14059781206455,143.6554187679053,3.8583454722604595
28,850.0,3,1,153.72240389499768,436.91443729811493,1097.2259292049691,-49.98780378338665,-0.16200300418190636,0.0,-0.0015689573369570275,-0.2134685985699093,153.72240389499768,436.91443729811493,1097.2259292049691
29,850.0,4,1,166.0301286956931,466.5372810321673,1265.6264397971204,-30.563150728584787,-0.043667966659046833,0.0,-0.0031379146739140135,-0.11041470225114422,166.0301286956931,466.5372810321673,1265.6264397971204
30,875.0,0,1,553.0012889582994,1017.6828888400956,3675.324578549834,-48.313593939013344,-1.273149501888274,0.0,-0.09248992572152837,-0.48340930843342944,553.0012889582994,1017.6828888400956,3675.324578549834
31,875.0,1,1,357.47221580060676,539.1164704086074,2092.7317909521353,75.81990545837868,0.4533845891281123,0.0,0.9952869018380608,-0.027200001279828356,357.47221580060676,539.1164704086074,2092.7317909521353
32,875.0,2,1,62.93977847224158,114.10633512175659,13.228435230419603,-127.63836716044568,-1.273149501888274,0.0,-0.5579914705080085,-2.226637020885262,62.93977847224158,114.10633512175659,13.228435230419603
33,875.0,3,1,157.2215671246197,299.3246833599674,1044.003629684209,-62.543053525788196,0.5958958130102763,0.0,-0.23167395670142543,-0.22681615691600698,157.2215671246197,299.3246833599674,1044.003629684209
34,875.0,4,1,176.32089975074283,344.2259120838183,1120.740010057911,-32.062086956595294,0.8210204899718236,0.0,0.3121286977315556,0.06868703187196656,176.32089975074283,344.2259120838183,1120.740010057911
35,900.0,0,1,563.9910021336826,1244.417236608655,3307.998995956799,-20.483064320010726,0.35805590191994885,0.0,29.71316362852968,-1.0626355441239657,563.9910021336826,1244.417236608655,3307.998995956799
36,900.0,1,1,349.1642778049484,672.7415008488429,1984.5384737161241,126.48191637102332,0.6005762035476377,0.0,34.92682104249573,-1.593507042114141,349.1642778049484,672.7415008488429,1984.5384737161241
37,900.0,2,1,58.9069244286295,125.14508512051286,2.9822216669828667,-96.14653785415749,-0.11510644474506163,0.0,-0.8403446170402873,-0.9240597621702757,58.9069244286295,125.14508512051286,2.9822216669828667
38,900.0,3,1,164.46731539187462,380.22420744459856,969.6508313961565,-36.69004326230174,-0.011060118502381172,0.0,29.297807296743112,-0.4102591304636567,164.46731539187462,380.22420744459856,969.6508313961565
39,900.0,4,1,158.95955848621352,355.1678014966778,947.8845531784418,-17.010641190088904,-0.1079269027186222,0.0,32.42827406678799,-2.039542430180419,158.95955848621352,355.1678014966778,947.8845531784418
40,925.0,0,1,555.3888974675867,1098.5436798578714,3032.9993779046326,-52.22196618979535,-0.02237955326656424,0.0,196.85483372826928,1.9709954056155818,555.3888974675867,1098.5436798578714,3032.9993779046326
41,925.0,1,1,342.1034515410775,602.3875580979272,1757.0981331684125,109.9949551425724,0.05753080895030727,0.0,229.449225287937,3.0319308473884066,342.1034515410775,602.3875580979272,1757.0981331684125
42,925.0,2,1,52.93911834096791,100.67214347951425,37.752806297604465,-117.98259285006327,1.5325293560901818,0.0,0.5741130451909013,-0.15618299650366585,52.93911834096791,100.67214347951425,37.752806297604465
43,925.0,3,1,165.128510383057,333.50771134343677,905.1206691857084,-49.58168675948582,0.0,0.0,203.2796473264379,2.0204841536748566,165.128510383057,333.50771134343677,905.1206691857084
44,925.0,4,1,161.84000912706975,312.28949073519084,812.3765625125345,-33.11208219128889,-0.044759106533128465,0.0,205.64156701105836,2.1334507092940234,161.84000912706975,312.28949073519084,812.3765625125345
45,950.0,0,1,530.0673041906462,923.5376530327536,2736.2946363093774,-61.67702975790121,0.11606581362019536,0.0,-50.97350221950103,-2.21424859583988,530.0673041906462,923.5376530327536,2736.2946363093774
46,950.0,1,1,363.40641365252026,618.364522541766,1696.707813382273,132.80658551707722,0.1827023755600977,0.0,108.19836690316356,4.057976666517543,363.40641365252026,618.364522541766,1696.707813382273
47,950.0,2,1,55.66996436265477,93.17996470120482,275.1477039592638,-140.04254322172426,0.1827023755600977,0.0,-117.27660061227698,-2.910953089730633,55.66996436265477,93.17996470120482,275.1477039592638
48,950.0,3,1,167.52836231467802,308.7558689785848,848.8462993198044,-40.871264116782186,0.19130603068990232,0.0,-27.555144038808635,-1.6802528208050127,167.52836231467802,308.7558689785848,848.8462993198044
49,950.0,4,1,174.8434640358137,317.2399576247782,845.4211411725395,-28.765379874665996,0.17409872043029306,0.0,-30.29539999029737,-1.4346991469002006,174.8434640358137,317.2399576247782,845.4211411725395
50,975.0,0,1,517.4009522605494,534.2308967771926,1930.3019824846294,-20.953683830683644,1.101688613324136,0.0,23.944084825920072,3.3068947959917523,517.4009522605494,534.2308967771926,1930.3019824846294
51,975.0,1,1,293.06810992639004,286.07624028320237,1110.0910485662466,105.9019616942486,1.1088595996510007,0.0,179.35285805625836,15.089790487136469,293.06810992639004,286.07624028320237,1110.0910485662466
52,975.0,2,1,46.16594044050744,45.176568783037794,155.9872793901968,-49.87849443321829,0.719385673182581,0.0,-32.268486913957986,4.837158021659036,46.16594044050744,45.176568783037794,155.9872793901968
53,975.0,3,1,131.71077733099662,133.55136647476067,486.2875453184569,-58.1235887788946,1.270879578987642,0.0,-53.962050546304454,-1.7062137826706874,131.71077733099662,133.55136647476067,486.2875453184569
54,975.0,4,1,115.85147510094953,112.77704001485458,390.99680299094587,-20.55129293880725,0.6895115597634716,0.0,22.644575755649157,9.530210978137433,115.85147510094953,112.77704001485458,390.99680299094587
55,1000.0,0,1,519.4680907940145,455.3226217038473,1727.0539294412135,-16.119353551628933,0.8910385016094118,0.0,17.55373421276863,-1.73604692735546,519.4680907940145,455.3226217038473,1727.0539294412135
56,1000.0,1,1,305.3603083744489,255.19365397111835,996.1802705681694,130.82295057424813,2.125848649635085,0.0,280.92799955203054,65.16151794150221,305.3603083744489,255.19365397111835,996.1802705681694
57,1000.0,2,1,54.6618935482162,44.64588804333879,180.94727897185552,-60.000103585836996,1.4516676779115834,0.0,-84.10293512238513,7.824799461583211,54.6618935482162,44.64588804333879,180.94727897185552
58,1000.0,3,1,139.53576888477627,117.94489915654789,446.9604062122146,-53.94623744232183,0.41572540306836814,0.0,-151.11823678787732,-41.454203023034665,139.53576888477627,117.94489915654789,446.9604062122146
59,1000.0,4,1,150.4184307389475,118.08661321157896,425.6613273896291,-20.729741161480433,0.9925830508936926,0.0,-32.14871739233968,-8.634066264484886,150.4184307389475,118.08661321157896,425.6613273896291
60,1025.0,0,1,544.9015619716625,269.5520575049518,1334.8745003934,-28.42154459147605,-1.3633050016135542,0.0,-131.58962366982269,-267.2411697635921,544.9015619716625,269.5520575049518,1334.8745003934
61,1025.0,1,1,331.8957124512662,162.98804326007377,797.3588966979594,121.99464824560357,21.066806621822877,0.0,621.1342359739292,137.26039248300685,331.8957124512662,162.98804326007377,797.3588966979594
62,1025.0,2,1,44.15578053780698,21.223163000208203,107.34254526304272,-91.51101568718582,-22.884573560978907,0.0,-444.75050736126013,-420.65710375098365,44.15578053780698,21.223163000208203,107.34254526304272
63,1025.0,3,1,153.6925416018661,73.56930422315119,367.4421471396502,-44.899685222116204,-6.145852201860748,0.0,-243.14244084130132,-127.37358706804207,153.6925416018661,73.56930422315119,367.4421471396502
64,1025.0,4,1,145.34287800107563,62.50027081693914,326.1214411545296,-16.79935195871076,-19.612543493250143,0.0,-140.3135489260867,-1329.1505494171795,145.34287800107563,62.50027081693914,326.1214411545296
65,1050.0,0,1,390.7949568658236,381.7304829560119,386.0956692929732,-84.14953326829914,-6.012936753938021,0.0,1959.4288916533756,2199.9357449643758,390.7949568658236,381.7304829560119,386.0956692929732
66,1050.0,1,1,244.1821637712159,272.4908300408214,612.038459351013,261.3776692024794,13.5806612714305,0.0,-1591.925698238849,9174.952307361456,244.1821637712159,272.4908300408214,612.038459351013
67,1050.0,2,1,21.728152361554606,46.09571546193859,58.123620143187665,-131.02987553368416,-2.702920570803329,0.0,4250.880852017273,6207.1332657537705,21.728152361554606,46.09571546193859,58.123620143187665
68,1050.0,3,1,113.77247950337377,107.32219763170845,263.74655970480444,-74.00984896561476,0.2184122022170527,0.0,4473.956281911505,1370.7360608466759,113.77247950337377,107.32219763170845,263.74655970480444
69,1050.0,4,1,116.77659757250112,96.95379663087516,47.083241161311506,-32.0762093911851,2.526591475874582,0.0,6771.887619087629,4364.948530439227,116.77659757250112,96.95379663087516,47.083241161311506
70,1075.0,0,1,569.3703018074439,279.0441862699933,1381.4809179789736,-72.62504550090046,-25.33024580862866,0.0,-948.1262209201413,-562.7626880560119,569.3703018074439,279.0441862699933,1381.4809179789736
71,1075.0,1,1,376.06573362221593,210.28005760744597,959.8346644647017,132.6602556084723,418.5557565880199,0.0,1175.9576097085082,1782.6235220817744,376.06573362221593,210.28005760744597,959.8346644647017
72,1075.0,2,1,61.44298927485316,32.91820632385815,153.85535000124014,-149.63911735634747,-227.59496224527788,0.0,-1600.0237446359624,-2248.9729790264973,61.44298927485316,32.91820632385815,153.85535000124014
73,1075.0,3,1,160.91161077293683,83.84246719708821,393.22417151548444,-57.011786226196364,-40.33713857460498,0.0,-691.3730452858144,-1651.0075257283634,160.91161077293683,83.84246719708821,393.22417151548444
74,1075.0,4,1,181.5296073651785,86.19220239655874,414.7717901231252,-38.04593434650724,-36.82324725645003,0.0,-594.7299012989988,-1588.3476034515297,181.5296073651785,86.19220239655874,414.7717901231252
75,1100.0,0,1,556.3313882696043,161.47455361472552,1230.9434644978162,10.196526258280073,230.68859882194556,0.0,294.1790600109307,599.4857535635947,556.3313882696043,161.47455361472552,1230.9434644978162
76,1100.0,1,1,331.65009643880745,110.05574402956888,736.2885395364086,107.36701717965934,324.48499175621146,0.0,1531.702103894926,2064.608209532382,331.65009643880745,110.05574402956888,736.2885395364086
77,1100.0,2,1,64.53657254735346,19.841747276084973,140.13147215848537,-37.23765479493318,143.45720615728987,0.0,-210.45914959781658,122.16850750021513,64.53657254735346,19.841747276084973,140.13147215848537
78,1100.0,3,1,147.94179080593764,40.31865586270374,302.0450255849797,-55.67613016467203,-78.93017861856015,0.0,-422.46533149921015,-109.0455064589878,147.94179080593764,40.31865586270374,302.0450255849797
79,1100.0,4,1,159.05360535224222,44.0179315140929,329.48306631105595,-10.418622528739547,112.47064800369526,0.0,151.7020689558576,313.59800758319216,159.05360535224222,44.0179315140929,329.48306631105595
80,1125.0,0,1,554.8790671634863,144.82774679153886,1093.0252111380669,-54.18479650534459,-287.4589300684993,0.0,-915.2661193584754,-1250.1283258647454,712.3064589417754,218.1927697015166,1444.5785041339866
81,1125.0,1,1,384.9556400793967,108.52976245968583,799.5618316200819,117.33751057227892,632.3546138216279,0.0,2506.304778285119,4018.590733485722,491.5618355990425,159.92048581802771,1034.381874974055
82,1125.0,2,1,55.84881716543369,13.908028950876039,109.14759975901048,-135.28582835193276,-629.253219497471,0.0,-2194.582606139438,-3072.9522029200016,68.97179760431857,22.063099867309752,142.6570840773468
83,1125.0,3,1,171.78601795073334,38.373897548544974,309.16103616910175,-36.03083291830944,-204.22796153415493,0.0,-705.4884075303089,-532.0073356089524,216.55364536214938,62.75151850386332,411.346870202471
84,1125.0,4,1,167.92291018503315,37.36663671423928,307.44720103740667,-32.802837974221234,17.7149818455855,0.0,-460.13473783248446,-63.13538329372386,214.34167473147167,59.91920700376353,413.1538684171113
85,1150.0,0,1,523.140359485155,66.3639772608035,782.4247126204269,-29.19523643217235,-461.50788698268207,0.0,-944.9367990021947,-2243.8673717968923,655.7738924393817,111.16881443269301,1076.7668977308242
86,1150.0,1,1,323.4553191913025,42.33028597932431,522.0752527913775,95.33977963400923,190.09594043757716,0.0,1511.6780222633151,1634.1741664889196,371.99441725511474,69.79815444840847,621.6445123834728
87,1150.0,2,1,45.144972635472634,3.7764428873986424,71.63912277112587,-40.91816983360388,-281.0415714291603,0.0,-844.5047834402412,-1329.0210929970453,53.325574304521005,8.133089686525794,81.23201871062089
88,1150.0,3,1,140.03495562843048,15.272853962555809,200.8414213631239,-45.94648069642801,-581.8275639291833,0.0,-691.5333340441812,-1263.226110206142,157.07166623646478,24.921150069896036,-0.11075991741568036
89,1150.0,4,1,109.86602202776162,11.394913403390513,156.7088236920451,-4.965174110486714,-189.94954357014922,0.0,128.77625367936525,364.8438601718153,122.45640536897338,19.02140927019026,195.39280211727876
90,1175.0,0,1,519.9361499199474,54.86425336840856,820.6107210062794,15.041499434861748,24.36062073660287,0.0,166.80338364627096,610.5237931087395,655.1076995110409,116.12828325702398,10.42995270323558
91,1175.0,1,1,295.6917994510473,35.89674649739069,509.5955027455071,124.69204433576613,1187.0936365469843,0.0,1990.6509766567324,4422.050965070222,329.34716337278627,66.13161607723391,10.42408068032609
92,1175.0,2,1,56.22573418790131,4.528959550152743,80.88040560326317,-15.994355451562797,-140.65448837678196,0.0,-613.2171196775926,-945.8883685590117,62.51442637574538,8.368099412123126,8.583983509387146
93,1175.0,3,1,128.4748935745893,12.336138194477742,196.54191814239232,-54.886345532775636,-1437.6694221736743,0.0,-1138.3252275609739,-2760.8861219933315,131.47012264564182,22.679514102016288,-0.11848870019191005
94,1175.0,4,1,141.4706129654404,11.671620737664433,197.28982427312067,-7.838030919553262,-454.07411556320585,0.0,-202.11998867942748,82.15861276126816,137.35320501471813,20.741618638822025,-0.23142452860310672
95,1200.0,0,1,551.1749946396251,40.32741973287717,811.9494753541783,-27.590502815209902,1668.4819073143735,0.0,276.28610350348754,1919.002353586795,678.7843437804153,136.93078216194527,69.85756284385884
96,1200.0,1,1,333.519076670094,30.780122626794764,545.3803220020443,128.74655226822824,2737.902507116476,0.0,3632.8995773943643,12694.042132588336,385.06026295069563,99.06622647063855,9.324654064787365
97,1200.0,2,1,57.59941249010395,3.533623717431065,81.68471866040457,-60.237811128784415,-477.432839688332,0.0,-1890.8711922337206,-3774.0618164023035,66.47876555830067,13.81344152718418,-0.9319052296912547
98,1200.0,3,1,133.90984019617133,9.903097215649169,201.31541503395235,-61.795862838580774,-880.3052972627229,0.0,-900.2115989052618,-4663.075576731702,145.53718679336814,29.550989775920886,122.67745137654494
99,1200.0,4,1,152.67020313031554,11.624747588916286,209.10317515801503,-21.277916507571035,682.4619811256744,0.0,-407.3317682724555,-2657.1442067406606,155.68468699954624,27.20470343494744,-0.8388318014610068
100,1225.0,0,1,562.0180384671343,16.2495745295069,722.081468150404,-78.79635284109725,-554.591143214544,0.0,-2403.2767555884384,-5713.537218708705,680.5396466187382,91.48809884556957,2.4922726317431705
101,1225.0,1,1,378.84181410847356,14.347992212582126,560.2080053895908,87.1992417947713,3179.690926059793,0.0,2801.924735015513,13309.801777407454,468.65614355577645,81.26226831676358,-0.7368521267248189
102,1225.0,2,1,53.01277939978193,1.0380726780827096,68.75926643494151,-132.16060662512666,-1729.6210189863232,0.0,-4342.818710993004,-10497.268477004676,58.688776407037565,6.342729501815665,53.8365048087559
103,1225.0,3,1,159.96891033227428,4.144461933221388,208.21895826301036,-75.41984391593155,-136.18915572251353,0.0,-1408.1593009496682,-5909.482510167276,183.03810394263974,21.949366465058734,40.23142687434539
104,1225.0,4,1,167.67523295486015,4.05015949148604,205.95347635010774,-48.96430852698245,-71.23753645061879,0.0,-1326.9675982825647,-2928.099900877045,186.19376078308125,17.24872109476998,0.42621355131882943
105,1250.0,0,1,504.787843590552,7.567704656373573,577.7691187270406,7.788160153582908,4803.465091647504,0.0,1748.8936497807917,9666.411037082595,647.3011945437084,101.2341463634767,994.3098801605423
106,1250.0,1,1,314.05189602533096,6.8322932549466735,391.9213390981576,93.06945192219825,6404.535886713031,0.0,3722.6511379698386,20090.79950016072,391.5936138296532,80.91568647375182,703.0010480028343
107,1250.0,2,1,62.145514883419516,1.010814184064213,69.66576718140809,-3.369592429956924,5358.381364514626,0.0,109.34537151152108,11356.006666983798,80.15557646648693,12.432961952409771,122.08990461634745
108,1250.0,3,1,131.66150163521664,1.5114676708922286,143.74844707344417,-45.56230431723361,1740.6670783133995,0.0,-695.8993433474643,-1659.6780830776552,161.01148906208454,25.921564757748047,250.09007405387547
109,1250.0,4,1,153.32669150780006,2.080437887649126,161.59870598121728,-9.00258454036259,1467.0236006371488,0.0,579.762275460118,3287.142643958534,183.85216520928986,27.73736139956396,266.1134632349548
110,1275.0,0,1,480.2070646738196,2.1733286829598133,381.6682468510187,-51.50584581903479,-4619.934248666061,0.0,-4341.101986980779,-16537.029237528346,571.1659434636805,35.93415413717091,634.3711560443338
111,1275.0,1,1,265.36782072322467,0.4728234219804997,228.19872710027897,110.95423252563228,-585.6094600381039,0.0,2233.80337996265,6158.084109023854,289.1680271765306,21.619456890760834,334.3924450443477
112,1275.0,2,1,22.190772706221004,0.5284546451953334,15.293769402718205,-93.99044606119708,-3637.4935345099766,0.0,-6533.040640790889,-19251.175168308517,25.331852119599592,2.485444429363871,30.90475400119401
113,1275.0,3,1,99.32985854713577,0.2275652876348429,77.1786091279539,-33.14704659306278,-2368.991054169892,0.0,-2117.17989336366,-8775.15650043168,109.16455852567827,6.0911670567243625,115.22770263868522
114,1275.0,4,1,60.01873001011924,1.2478285642572735,43.60884899494602,-24.113794947808742,-1597.7558860631398,0.0,-1853.6614018412074,-7406.66056022422,66.63931954935386,4.423162332003433,76.33128330887541
115,1300.0,0,1,475.11714815601766,0.7277913810566147,415.85327282514487,-53.242216164907404,-505.828807879745,0.0,-2539.7246681855104,-3607.205572207982,572.9758320627841,53.930654952810734,837.6151701971498
116,1300.0,1,1,349.7411733126991,0.8014452201465109,309.9016157003452,117.06456003780238,2577.541146872365,0.0,4304.357815441093,11100.375641794002,421.80627866507785,41.82946399427621,620.0557935143
117,1300.0,2,1,55.50689797299326,-0.653418707502396,45.10812342353565,-124.73454726209752,-2754.2167652436256,0.0,-6823.832168518184,-20555.06151662809,63.42254682534854,4.476108735026866,81.93631157768549
118,1300.0,3,1,112.97679119603985,0.2745975167941389,100.23168040241984,-53.826758252844684,-1699.4233935142984,0.0,-2277.469307168896,-6509.5660962721595,133.15853865499258,11.40877608388485,178.20037376965988
119,1300.0,4,1,138.11027492644467,-0.1445710042081434,108.67526348997382,-45.82251933130044,-1907.6894090500682,0.0,-2456.183708985369,-6755.876853287773,160.23251492178719,11.30007775360127,210.9959338144719
