284.9561233707576, 0.05014382175535505
285.7304168279778, 0.054253292590685946
290.97302877790685, 0.07360673097246322
291.9570267131243, 0.08235278993550867
298.23202993934706, 0.10031805260445281
301.86153052006716, 0.1118567714023254
306.70086462769393, 0.13843902144438577
312.7500322622274, 0.1671163845793782
318.7991998967609, 0.20127715063336804
326.0582010582011, 0.25482461730907285
329.461866047232, 0.28999476969627547
338.1565363272681, 0.34927347842019296
345.41553748870825, 0.4173431803495546
352.67453865014846, 0.49305537906878444
359.9335398115886, 0.5844881096854415
368.4023744999355, 0.6905228599656926
378.0810427151891, 0.8497900380192267
385.3400438766293, 0.9670755869974603
395.0187120918829, 1.1562038162851345
404.2941024648342, 1.3620888738865748
414.37604852239, 1.611017872837195
423.6514388953414, 1.8500753151811253
434.9432184798039, 2.1674397945892405
447.04155374887085, 2.5286126383317598
460.34972254484455, 2.945289704114527
476.0775583946316, 3.4815822997377004
490.59556071751194, 4.001775362684481
513.5823977287392, 4.86765988450478
534.1495676861531, 5.65372404948026
555.9265711704736, 6.500042414687232
589.8019099238611, 7.825507857271523
617.1095809597551, 8.820190848474335
643.0345851077559, 9.699193714690498
681.7492579687702, 10.808120193135126
701.1065943992774, 11.279434436112439
734.9819331526649, 11.962157021960902
755.5491031100787, 12.392746883076304
789.0211640211642, 12.887241729732938
808.7817782939734, 13.160483315303782
843.8669505742677, 13.442539279921368
864.4341205316815, 13.680070310294491
899.5192928119758, 13.545936879159175
921.2962962962963, 13.462400388092473
955.1716350496838, 13.32156894690608
976.9486385340044, 13.164748377358377
1010.8239772873919, 12.915839908307497
1032.6009807717123, 12.724378137203919
1066.4763195251, 12.330297863228814
1090.672990063234, 12.231582583960414
1122.1286617628082, 11.849230024580311
1148.7449993547555, 11.67518888375874
1175.3613369467027, 11.392003872922787
1201.97767453865, 11.00394242615967
1228.5940121305975, 10.622526922828962
1255.2103497225448, 10.324516788789007
1281.8266873144921, 10.072181798156526
1308.4430249064394, 9.807795767231896
1335.059362498387, 9.514968276381072
1361.6757000903342, 9.253752792825845
1388.2920376822815, 8.766654895651982
1416.2311265969802, 8.501545876090482
1441.5247128661763, 8.16803799850463
1468.1410504581236, 7.838039565236988
1494.7573880500709, 7.5228004299592675
1521.3737256420184, 7.250197278821977
1547.9900632339657, 7.017679409653211
1574.606400825913, 6.741214524866689
1601.2227384178602, 6.4953798149948065
1627.8390760098077, 6.317374056052706
1654.455413601755, 6.102076021597887
1681.0717511937023, 5.8148282731945775
1707.6880887856496, 5.626997395080902
1734.304426377597, 5.370788833463451
1760.9207639695444, 5.175911812280173
1787.5371015614917, 4.970036209409051
1814.1534391534392, 4.782949676537314
1840.7697767453865, 4.634065787339044
1868.837914569622, 4.452532684164744
1894.002451929281, 4.299866815999966
1920.6187895212286, 4.1389290167523765
1947.2351271131758, 3.984836474967131
1972.5072052307823, 3.8267575654984807
2000.4678022970704, 3.6883208628376165
2025.0677506775066, 3.5675176421873096
2053.700477480965, 3.4031580691640957
2080.3168150729125, 3.286960510416938
2106.93315266486, 3.1737878794653716
2133.549490256807, 3.057947130459839
2160.165827848755, 2.9443910098403765
2180.732997806168, 2.8820243796929983
2213.3985030326494, 2.788668392476542
2238.670581150256, 2.6917863390870016
2266.631178216544, 2.572319610316511
2287.198348173958, 2.5043543115876217
2322.2835204542516, 2.3807340380283195
2347.9319912246738, 2.2889064287189194
2375.516195638147, 2.227721893967914
2394.8735320686537, 2.1400832654707695
