\relax 
\providecommand\hyper@newdestlabel[2]{}
\providecommand\babel@aux[2]{}
\@nameuse{bbl@beforestart}
\providecommand\HyperFirstAtBeginDocument{\AtBeginDocument}
\HyperFirstAtBeginDocument{\ifx\hyper@anchor\@undefined
\global\let\oldcontentsline\contentsline
\gdef\contentsline#1#2#3#4{\oldcontentsline{#1}{#2}{#3}}
\global\let\oldnewlabel\newlabel
\gdef\newlabel#1#2{\newlabelxx{#1}#2}
\gdef\newlabelxx#1#2#3#4#5#6{\oldnewlabel{#1}{{#2}{#3}}}
\AtEndDocument{\ifx\hyper@anchor\@undefined
\let\contentsline\oldcontentsline
\let\newlabel\oldnewlabel
\fi}
\fi}
\global\let\hyper@last\relax 
\gdef\HyperFirstAtBeginDocument#1{#1}
\providecommand\HyField@AuxAddToFields[1]{}
\providecommand\HyField@AuxAddToCoFields[2]{}
\@writefile{toc}{\boolfalse {citerequest}\boolfalse {citetracker}\boolfalse {pagetracker}\boolfalse {backtracker}\relax }
\@writefile{lof}{\boolfalse {citerequest}\boolfalse {citetracker}\boolfalse {pagetracker}\boolfalse {backtracker}\relax }
\@writefile{lot}{\boolfalse {citerequest}\boolfalse {citetracker}\boolfalse {pagetracker}\boolfalse {backtracker}\relax }
\bibstyle{biblatex}
\bibdata{microV-blx,ref/ref}
\citation{biblatex-control}
\abx@aux@refcontext{nty/global//global/global}
\babel@aux{nil}{}
\@writefile{toc}{\defcounter {refsection}{0}\relax }\@writefile{toc}{\contentsline {chapter}{\numberline {1}Introduction and preparation}{2}{chapter.1}\protected@file@percent }
\@writefile{lof}{\defcounter {refsection}{0}\relax }\@writefile{lof}{\addvspace {10\p@ }}
\@writefile{lot}{\defcounter {refsection}{0}\relax }\@writefile{lot}{\addvspace {10\p@ }}
\@writefile{toc}{\defcounter {refsection}{0}\relax }\@writefile{toc}{\contentsline {section}{\numberline {1.1}About}{2}{section.1.1}\protected@file@percent }
\@writefile{lof}{\defcounter {refsection}{0}\relax }\@writefile{lof}{\contentsline {figure}{\numberline {1.1}{\ignorespaces Experimental setup (nice but simplified)\relax }}{2}{figure.caption.2}\protected@file@percent }
\providecommand*\caption@xref[2]{\@setref\relax\@undefined{#1}}
\newlabel{fig:Scheme}{{1.1}{2}{Experimental setup (nice but simplified)\relax }{figure.caption.2}{}}
\@writefile{toc}{\defcounter {refsection}{0}\relax }\@writefile{toc}{\contentsline {section}{\numberline {1.2}Installing}{3}{section.1.2}\protected@file@percent }
\@writefile{toc}{\defcounter {refsection}{0}\relax }\@writefile{toc}{\contentsline {section}{\numberline {1.3}First start}{3}{section.1.3}\protected@file@percent }
\@writefile{toc}{\defcounter {refsection}{0}\relax }\@writefile{toc}{\contentsline {section}{\numberline {1.4}device\_server}{4}{section.1.4}\protected@file@percent }
\@writefile{toc}{\defcounter {refsection}{0}\relax }\@writefile{toc}{\contentsline {section}{\numberline {1.5}laserController}{4}{section.1.5}\protected@file@percent }
\@writefile{lof}{\defcounter {refsection}{0}\relax }\@writefile{lof}{\contentsline {figure}{\numberline {1.2}{\ignorespaces laserController gui}}{5}{figure.caption.3}\protected@file@percent }
\newlabel{fig:lasercontroller}{{1.2}{5}{laserController gui}{figure.caption.3}{}}
\@writefile{toc}{\defcounter {refsection}{0}\relax }\@writefile{toc}{\contentsline {chapter}{\numberline {2}microV}{6}{chapter.2}\protected@file@percent }
\@writefile{lof}{\defcounter {refsection}{0}\relax }\@writefile{lof}{\addvspace {10\p@ }}
\@writefile{lot}{\defcounter {refsection}{0}\relax }\@writefile{lot}{\addvspace {10\p@ }}
\@writefile{toc}{\defcounter {refsection}{0}\relax }\@writefile{toc}{\contentsline {section}{\numberline {2.1}Interface}{6}{section.2.1}\protected@file@percent }
\@writefile{lof}{\defcounter {refsection}{0}\relax }\@writefile{lof}{\contentsline {figure}{\numberline {2.1}{\ignorespaces Main program}}{6}{figure.caption.4}\protected@file@percent }
\newlabel{fig:microvareas}{{2.1}{6}{Main program}{figure.caption.4}{}}
\@writefile{toc}{\defcounter {refsection}{0}\relax }\@writefile{toc}{\contentsline {subsection}{\numberline {2.1.1}Fast control}{7}{subsection.2.1.1}\protected@file@percent }
\@writefile{lof}{\defcounter {refsection}{0}\relax }\@writefile{lof}{\contentsline {figure}{\numberline {2.2}{\ignorespaces Fast control}}{7}{figure.caption.5}\protected@file@percent }
\newlabel{fig:fastcontrol}{{2.2}{7}{Fast control}{figure.caption.5}{}}
\@writefile{toc}{\defcounter {refsection}{0}\relax }\@writefile{toc}{\contentsline {subsection}{\numberline {2.1.2}Data preview}{7}{subsection.2.1.2}\protected@file@percent }
\@writefile{toc}{\defcounter {refsection}{0}\relax }\@writefile{toc}{\contentsline {subsection}{\numberline {2.1.3}Laser}{8}{subsection.2.1.3}\protected@file@percent }
\@writefile{lof}{\defcounter {refsection}{0}\relax }\@writefile{lof}{\contentsline {figure}{\numberline {2.3}{\ignorespaces Laser}}{9}{figure.caption.6}\protected@file@percent }
\newlabel{fig:laser}{{2.3}{9}{Laser}{figure.caption.6}{}}
\@writefile{toc}{\defcounter {refsection}{0}\relax }\@writefile{toc}{\contentsline {subsection}{\numberline {2.1.4}Motion}{10}{subsection.2.1.4}\protected@file@percent }
\@writefile{toc}{\defcounter {refsection}{0}\relax }\@writefile{toc}{\contentsline {subsubsection}{3D translation stage (PI NanoCube E727). Fig.\ref  {fig:motion-3d} }{10}{section*.7}\protected@file@percent }
\newlabel{fig:motion-3d}{{2.4a}{10}{\relax }{figure.caption.8}{}}
\newlabel{sub@fig:motion-3d}{{a}{10}{\relax }{figure.caption.8}{}}
\newlabel{fig:motion-filters}{{2.4b}{10}{\relax }{figure.caption.8}{}}
\newlabel{sub@fig:motion-filters}{{b}{10}{\relax }{figure.caption.8}{}}
\@writefile{lof}{\defcounter {refsection}{0}\relax }\@writefile{lof}{\contentsline {figure}{\numberline {2.4}{\ignorespaces (a) 3D NanoCube, (b) filters piezostage\relax }}{10}{figure.caption.8}\protected@file@percent }
\@writefile{toc}{\defcounter {refsection}{0}\relax }\@writefile{toc}{\contentsline {subsubsection}{Filters piezostage (ELLx). Fig.\ref  {fig:motion-filters}}{10}{section*.9}\protected@file@percent }
\@writefile{toc}{\defcounter {refsection}{0}\relax }\@writefile{toc}{\contentsline {subsubsection}{Delay line (MoCo linear stage). Fig.\ref  {fig:motion-delay}}{10}{section*.10}\protected@file@percent }
\newlabel{fig:motion-delay}{{2.5a}{11}{\relax }{figure.caption.11}{}}
\newlabel{sub@fig:motion-delay}{{a}{11}{\relax }{figure.caption.11}{}}
\newlabel{fig:motion-lens}{{2.5b}{11}{\relax }{figure.caption.11}{}}
\newlabel{sub@fig:motion-lens}{{b}{11}{\relax }{figure.caption.11}{}}
\@writefile{lof}{\defcounter {refsection}{0}\relax }\@writefile{lof}{\contentsline {figure}{\numberline {2.5}{\ignorespaces (a) Delay line control, (b) Linear translation stages\relax }}{11}{figure.caption.11}\protected@file@percent }
\@writefile{toc}{\defcounter {refsection}{0}\relax }\@writefile{toc}{\contentsline {subsubsection}{Linear translation stages (lens+knife position). Fig.\ref  {fig:motion-lens}}{12}{section*.12}\protected@file@percent }
\@writefile{toc}{\defcounter {refsection}{0}\relax }\@writefile{toc}{\contentsline {subsubsection}{HWP (FIX/TUN output). Fig.\ref  {fig:motion-hwp_power}}{12}{section*.13}\protected@file@percent }
\newlabel{fig:motion-hwp_power}{{2.6a}{12}{\relax }{figure.caption.14}{}}
\newlabel{sub@fig:motion-hwp_power}{{a}{12}{\relax }{figure.caption.14}{}}
\newlabel{fig:motion-hwp}{{2.6b}{12}{\relax }{figure.caption.14}{}}
\newlabel{sub@fig:motion-hwp}{{b}{12}{\relax }{figure.caption.14}{}}
\newlabel{fig:motion-commutation}{{2.6c}{12}{\relax }{figure.caption.14}{}}
\newlabel{sub@fig:motion-commutation}{{c}{12}{\relax }{figure.caption.14}{}}
\@writefile{lof}{\defcounter {refsection}{0}\relax }\@writefile{lof}{\contentsline {figure}{\numberline {2.6}{\ignorespaces (a) HWP for FIX/TUN power control, (b) HWP for polarization control, (c) commutation mirror\relax }}{12}{figure.caption.14}\protected@file@percent }
\@writefile{toc}{\defcounter {refsection}{0}\relax }\@writefile{toc}{\contentsline {subsubsection}{HWP (Polarization). Fig.\ref  {fig:motion-hwp}}{13}{section*.15}\protected@file@percent }
\@writefile{toc}{\defcounter {refsection}{0}\relax }\@writefile{toc}{\contentsline {subsubsection}{Commutation. Fig.\ref  {fig:motion-commutation}}{13}{section*.16}\protected@file@percent }
\@writefile{toc}{\defcounter {refsection}{0}\relax }\@writefile{toc}{\contentsline {subsubsection}{Beam shift. Fig.\ref  {fig:motion-beamshift}}{14}{section*.17}\protected@file@percent }
\@writefile{lof}{\defcounter {refsection}{0}\relax }\@writefile{lof}{\contentsline {figure}{\numberline {2.7}{\ignorespaces Commutation mirror}}{14}{figure.caption.18}\protected@file@percent }
\newlabel{fig:motion-beamshift}{{2.7}{14}{Commutation mirror}{figure.caption.18}{}}
\@writefile{toc}{\defcounter {refsection}{0}\relax }\@writefile{toc}{\contentsline {subsection}{\numberline {2.1.5}Readout}{15}{subsection.2.1.5}\protected@file@percent }
\@writefile{toc}{\defcounter {refsection}{0}\relax }\@writefile{toc}{\contentsline {subsubsection}{Spectrometer. Fig.\ref  {fig:readout-spectrometer}}{15}{section*.20}\protected@file@percent }
\@writefile{lof}{\defcounter {refsection}{0}\relax }\@writefile{lof}{\contentsline {figure}{\numberline {2.8}{\ignorespaces Control of Andor camera and Shamrock monochromator}}{16}{figure.caption.19}\protected@file@percent }
\newlabel{fig:readout-spectrometer}{{2.8}{16}{Control of Andor camera and Shamrock monochromator}{figure.caption.19}{}}
\@writefile{toc}{\defcounter {refsection}{0}\relax }\@writefile{toc}{\contentsline {subsubsection}{Picoscope. Fig.\ref  {fig:readout-picoscope}}{16}{section*.21}\protected@file@percent }
\@writefile{toc}{\defcounter {refsection}{0}\relax }\@writefile{toc}{\contentsline {subsubsection}{Powermeter. Fig.\ref  {fig:readout-powermeter}}{17}{section*.22}\protected@file@percent }
\newlabel{fig:readout-powermeter}{{2.9a}{17}{\relax }{figure.caption.23}{}}
\newlabel{sub@fig:readout-powermeter}{{a}{17}{\relax }{figure.caption.23}{}}
\newlabel{fig:readout-camera}{{2.9b}{17}{\relax }{figure.caption.23}{}}
\newlabel{sub@fig:readout-camera}{{b}{17}{\relax }{figure.caption.23}{}}
\@writefile{lof}{\defcounter {refsection}{0}\relax }\@writefile{lof}{\contentsline {figure}{\numberline {2.9}{\ignorespaces (a) Powermeter, (b) Camera configuration.\relax }}{17}{figure.caption.23}\protected@file@percent }
\@writefile{toc}{\defcounter {refsection}{0}\relax }\@writefile{toc}{\contentsline {subsubsection}{Camera. Fig.\ref  {fig:readout-camera}}{17}{section*.24}\protected@file@percent }
\@writefile{toc}{\defcounter {refsection}{0}\relax }\@writefile{toc}{\contentsline {subsubsection}{CCS200. Fig.\ref  {fig:readout-CCS200}}{18}{section*.25}\protected@file@percent }
\@writefile{toc}{\defcounter {refsection}{0}\relax }\@writefile{toc}{\contentsline {subsection}{\numberline {2.1.6}Plot}{18}{subsection.2.1.6}\protected@file@percent }
\@writefile{toc}{\defcounter {refsection}{0}\relax }\@writefile{toc}{\contentsline {subsection}{\numberline {2.1.7}Setup}{18}{subsection.2.1.7}\protected@file@percent }
\newlabel{sec:Setup}{{2.1.7}{18}{Setup}{subsection.2.1.7}{}}
\@writefile{toc}{\defcounter {refsection}{0}\relax }\@writefile{toc}{\contentsline {paragraph}{Finalization protocol}{18}{section*.26}\protected@file@percent }
\@writefile{toc}{\defcounter {refsection}{0}\relax }\@writefile{toc}{\contentsline {section}{\numberline {2.2}Optimization}{19}{section.2.2}\protected@file@percent }
\@writefile{toc}{\defcounter {refsection}{0}\relax }\@writefile{toc}{\contentsline {section}{\numberline {2.3}Measurements}{19}{section.2.3}\protected@file@percent }
\@writefile{toc}{\defcounter {refsection}{0}\relax }\@writefile{toc}{\contentsline {subsection}{\numberline {2.3.1}ScanND}{19}{subsection.2.3.1}\protected@file@percent }
\newlabel{fig:optimization}{{2.10a}{20}{\relax }{figure.caption.27}{}}
\newlabel{sub@fig:optimization}{{a}{20}{\relax }{figure.caption.27}{}}
\newlabel{fig:plot}{{2.10b}{20}{\relax }{figure.caption.27}{}}
\newlabel{sub@fig:plot}{{b}{20}{\relax }{figure.caption.27}{}}
\newlabel{fig:setup}{{2.10c}{20}{\relax }{figure.caption.27}{}}
\newlabel{sub@fig:setup}{{c}{20}{\relax }{figure.caption.27}{}}
\@writefile{lof}{\defcounter {refsection}{0}\relax }\@writefile{lof}{\contentsline {figure}{\numberline {2.10}{\ignorespaces (a) Optimization, (b) Plot, (c) Setup.\relax }}{20}{figure.caption.27}\protected@file@percent }
\newlabel{fig:scannd}{{2.11a}{21}{\relax }{figure.caption.28}{}}
\newlabel{sub@fig:scannd}{{a}{21}{\relax }{figure.caption.28}{}}
\newlabel{fig:scannd2ax}{{2.11b}{21}{\relax }{figure.caption.28}{}}
\newlabel{sub@fig:scannd2ax}{{b}{21}{\relax }{figure.caption.28}{}}
\newlabel{fig:scannd11ax}{{2.11c}{21}{\relax }{figure.caption.28}{}}
\newlabel{sub@fig:scannd11ax}{{c}{21}{\relax }{figure.caption.28}{}}
\newlabel{fig:scanndNax}{{2.11d}{21}{\relax }{figure.caption.28}{}}
\newlabel{sub@fig:scanndNax}{{d}{21}{\relax }{figure.caption.28}{}}
\@writefile{lof}{\defcounter {refsection}{0}\relax }\@writefile{lof}{\contentsline {figure}{\numberline {2.11}{\ignorespaces (a) ScanND, (b) sequence of axes, (c) sublevels, (d) N-dimensional scanning.\relax }}{21}{figure.caption.28}\protected@file@percent }
\@writefile{toc}{\defcounter {refsection}{0}\relax }\@writefile{toc}{\contentsline {paragraph}{Config.}{22}{section*.29}\protected@file@percent }
\@writefile{toc}{\defcounter {refsection}{0}\relax }\@writefile{toc}{\contentsline {paragraph}{Script.}{23}{section*.30}\protected@file@percent }
\@writefile{toc}{\defcounter {refsection}{0}\relax }\@writefile{toc}{\contentsline {subparagraph}{Single axis.}{23}{section*.31}\protected@file@percent }
\@writefile{toc}{\defcounter {refsection}{0}\relax }\@writefile{toc}{\contentsline {subparagraph}{Sequence of single axes.}{23}{section*.32}\protected@file@percent }
\@writefile{toc}{\defcounter {refsection}{0}\relax }\@writefile{toc}{\contentsline {subparagraph}{Sublevel of axis.}{23}{section*.33}\protected@file@percent }
\@writefile{toc}{\defcounter {refsection}{0}\relax }\@writefile{toc}{\contentsline {subparagraph}{N-dimensional scanning.}{23}{section*.34}\protected@file@percent }
\newlabel{fig:scan3d}{{2.12a}{24}{\relax }{figure.caption.35}{}}
\newlabel{sub@fig:scan3d}{{a}{24}{\relax }{figure.caption.35}{}}
\newlabel{fig:scan3daxes}{{2.12b}{24}{\relax }{figure.caption.35}{}}
\newlabel{sub@fig:scan3daxes}{{b}{24}{\relax }{figure.caption.35}{}}
\@writefile{lof}{\defcounter {refsection}{0}\relax }\@writefile{lof}{\contentsline {figure}{\numberline {2.12}{\ignorespaces Scan3D: (a) 3D scanning only, (b) 3D scanning at different excitation wavelengths and with different filters.\relax }}{24}{figure.caption.35}\protected@file@percent }
\@writefile{toc}{\defcounter {refsection}{0}\relax }\@writefile{toc}{\contentsline {subsection}{\numberline {2.3.2}Scan3D}{24}{subsection.2.3.2}\protected@file@percent }
\@writefile{toc}{\defcounter {refsection}{0}\relax }\@writefile{toc}{\contentsline {subsection}{\numberline {2.3.3}MultiScan}{25}{subsection.2.3.3}\protected@file@percent }
\@writefile{toc}{\defcounter {refsection}{0}\relax }\@writefile{toc}{\contentsline {paragraph}{Configuration of optimization for 3D tracking}{25}{section*.36}\protected@file@percent }
\@writefile{toc}{\defcounter {refsection}{0}\relax }\@writefile{toc}{\contentsline {paragraph}{Configuration of live optimization of beams overlapping and delay}{26}{section*.38}\protected@file@percent }
\@writefile{toc}{\defcounter {refsection}{0}\relax }\@writefile{toc}{\contentsline {paragraph}{How to work with all of this?}{26}{section*.39}\protected@file@percent }
\newlabel{fig:multiscan_probe}{{2.13a}{27}{\relax }{figure.caption.37}{}}
\newlabel{sub@fig:multiscan_probe}{{a}{27}{\relax }{figure.caption.37}{}}
\newlabel{fig:multiscan_A}{{2.13b}{27}{\relax }{figure.caption.37}{}}
\newlabel{sub@fig:multiscan_A}{{b}{27}{\relax }{figure.caption.37}{}}
\newlabel{fig:multiscan}{{2.13c}{27}{\relax }{figure.caption.37}{}}
\newlabel{sub@fig:multiscan}{{c}{27}{\relax }{figure.caption.37}{}}
\newlabel{fig:multiscan_script}{{2.13d}{27}{\relax }{figure.caption.37}{}}
\newlabel{sub@fig:multiscan_script}{{d}{27}{\relax }{figure.caption.37}{}}
\@writefile{lof}{\defcounter {refsection}{0}\relax }\@writefile{lof}{\contentsline {figure}{\numberline {2.13}{\ignorespaces (a) MultiScan, (b) table with test points, (c) labeled markers for testing, (d) example of script for measurements.\relax }}{27}{figure.caption.37}\protected@file@percent }
\@writefile{toc}{\defcounter {refsection}{0}\relax }\@writefile{toc}{\contentsline {section}{\numberline {2.4}Calibration}{28}{section.2.4}\protected@file@percent }
\newlabel{sec:Calibration}{{2.4}{28}{Calibration}{section.2.4}{}}
\newlabel{fig:Power_calibr_TUN}{{2.14a}{28}{\relax }{figure.caption.40}{}}
\newlabel{sub@fig:Power_calibr_TUN}{{a}{28}{\relax }{figure.caption.40}{}}
\newlabel{fig:Power_calibr_max}{{2.14b}{28}{\relax }{figure.caption.40}{}}
\newlabel{sub@fig:Power_calibr_max}{{b}{28}{\relax }{figure.caption.40}{}}
\@writefile{lof}{\defcounter {refsection}{0}\relax }\@writefile{lof}{\contentsline {figure}{\numberline {2.14}{\ignorespaces (a) Power calibration curves, (b) maximal power vs excitation wavelength.\relax }}{28}{figure.caption.40}\protected@file@percent }
\@writefile{toc}{\defcounter {refsection}{0}\relax }\@writefile{toc}{\contentsline {subsection}{\numberline {2.4.1}Power}{28}{subsection.2.4.1}\protected@file@percent }
\newlabel{sec:powerCalibr}{{2.4.1}{28}{Power}{subsection.2.4.1}{}}
\citation{diels_control_1985}
\abx@aux@cite{diels_control_1985}
\abx@aux@segm{0}{0}{diels_control_1985}
\@writefile{toc}{\defcounter {refsection}{0}\relax }\@writefile{toc}{\contentsline {subsection}{\numberline {2.4.2}Pulsewidth}{30}{subsection.2.4.2}\protected@file@percent }
\@writefile{toc}{\defcounter {refsection}{0}\relax }\@writefile{toc}{\contentsline {subsubsection}{FIX}{30}{section*.41}\protected@file@percent }
\newlabel{sec:Pulse_FIX_autocorr}{{2.4.2}{30}{FIX}{section*.41}{}}
\abx@aux@page{1}{30}
\@writefile{lof}{\defcounter {refsection}{0}\relax }\@writefile{lof}{\contentsline {figure}{\numberline {2.15}{\ignorespaces Interferometric autocorrelation function for \textbf  {FIX} output vs delay.\relax }}{31}{figure.caption.42}\protected@file@percent }
\newlabel{fig:interfAutocorr}{{2.15}{31}{Interferometric autocorrelation function for \textbf {FIX} output vs delay.\relax }{figure.caption.42}{}}
\@writefile{toc}{\defcounter {refsection}{0}\relax }\@writefile{toc}{\contentsline {subsubsection}{TUN}{31}{section*.44}\protected@file@percent }
\@writefile{lof}{\defcounter {refsection}{0}\relax }\@writefile{lof}{\contentsline {figure}{\numberline {2.16}{\ignorespaces Pulsewidth for \textbf  {TUN} output.\relax }}{32}{figure.caption.43}\protected@file@percent }
\newlabel{fig:sech2}{{2.16}{32}{Pulsewidth for \textbf {TUN} output.\relax }{figure.caption.43}{}}
\newlabel{fig:Pulse_FIX_autocorr}{{2.17a}{32}{\relax }{figure.caption.45}{}}
\newlabel{sub@fig:Pulse_FIX_autocorr}{{a}{32}{\relax }{figure.caption.45}{}}
\newlabel{fig:Pulse_TUN}{{2.17b}{32}{\relax }{figure.caption.45}{}}
\newlabel{sub@fig:Pulse_TUN}{{b}{32}{\relax }{figure.caption.45}{}}
\@writefile{lof}{\defcounter {refsection}{0}\relax }\@writefile{lof}{\contentsline {figure}{\numberline {2.17}{\ignorespaces (a) Interferometric autocorrelation function for \textbf  {FIX} output, (b) pulsewidth for \textbf  {TUN} output.\relax }}{32}{figure.caption.45}\protected@file@percent }
\newlabel{eq:autocorr}{{2.4.2}{33}{TUN}{equation.2.4.4}{}}
\@writefile{toc}{\defcounter {refsection}{0}\relax }\@writefile{toc}{\contentsline {subsection}{\numberline {2.4.3}Beam size}{33}{subsection.2.4.3}\protected@file@percent }
\@writefile{toc}{\defcounter {refsection}{0}\relax }\@writefile{toc}{\contentsline {subsubsection}{Microscope}{33}{section*.46}\protected@file@percent }
\newlabel{fig:Beam_TUN}{{2.18a}{34}{\relax }{figure.caption.47}{}}
\newlabel{sub@fig:Beam_TUN}{{a}{34}{\relax }{figure.caption.47}{}}
\newlabel{fig:Beam_TUN_resid}{{2.18b}{34}{\relax }{figure.caption.47}{}}
\newlabel{sub@fig:Beam_TUN_resid}{{b}{34}{\relax }{figure.caption.47}{}}
\@writefile{lof}{\defcounter {refsection}{0}\relax }\@writefile{lof}{\contentsline {figure}{\numberline {2.18}{\ignorespaces (a) Beam profiles for \textbf  {TUN} output and (b) corresponding residuals after fitting.\relax }}{34}{figure.caption.47}\protected@file@percent }
\newlabel{fig:Beam}{{2.18}{34}{(a) Beam profiles for \textbf {TUN} output and (b) corresponding residuals after fitting.\relax }{figure.caption.47}{}}
\citation{young_pragmatic_2015}
\abx@aux@cite{young_pragmatic_2015}
\abx@aux@segm{0}{0}{young_pragmatic_2015}
\newlabel{fig:BeamSize_FIX}{{2.19a}{35}{\relax }{figure.caption.48}{}}
\newlabel{sub@fig:BeamSize_FIX}{{a}{35}{\relax }{figure.caption.48}{}}
\newlabel{fig:BeamSize_TUN}{{2.19b}{35}{\relax }{figure.caption.48}{}}
\newlabel{sub@fig:BeamSize_TUN}{{b}{35}{\relax }{figure.caption.48}{}}
\@writefile{lof}{\defcounter {refsection}{0}\relax }\@writefile{lof}{\contentsline {figure}{\numberline {2.19}{\ignorespaces Center position and size for (a) \textbf  {FIX} and (b) \textbf  {TUN} outputs.\relax }}{35}{figure.caption.48}\protected@file@percent }
\newlabel{fig:BeamSize}{{2.19}{35}{Center position and size for (a) \textbf {FIX} and (b) \textbf {TUN} outputs.\relax }{figure.caption.48}{}}
\abx@aux@page{2}{35}
\@writefile{toc}{\defcounter {refsection}{0}\relax }\@writefile{toc}{\contentsline {subsubsection}{HRS}{36}{section*.49}\protected@file@percent }
\newlabel{sec:HRS_beamSize}{{2.4.3}{36}{HRS}{section*.49}{}}
\@writefile{lof}{\defcounter {refsection}{0}\relax }\@writefile{lof}{\contentsline {figure}{\numberline {2.20}{\ignorespaces Estimated beam size at the input of HRS setup, beam position and size variation vs distance from beam splitter\relax }}{36}{figure.caption.50}\protected@file@percent }
\newlabel{fig:BeamSize_HRS_TUN}{{2.20}{36}{Estimated beam size at the input of HRS setup, beam position and size variation vs distance from beam splitter\relax }{figure.caption.50}{}}
\@writefile{toc}{\defcounter {refsection}{0}\relax }\@writefile{toc}{\contentsline {subsection}{\numberline {2.4.4}Delay and overlap}{37}{subsection.2.4.4}\protected@file@percent }
\@writefile{toc}{\defcounter {refsection}{0}\relax }\@writefile{toc}{\contentsline {subsubsection}{Microscope}{37}{section*.51}\protected@file@percent }
\@writefile{toc}{\defcounter {refsection}{0}\relax }\@writefile{toc}{\contentsline {subsubsection}{HRS}{38}{section*.52}\protected@file@percent }
\@writefile{toc}{\defcounter {refsection}{0}\relax }\@writefile{toc}{\contentsline {subsection}{\numberline {2.4.5}Intensity calculation}{38}{subsection.2.4.5}\protected@file@percent }
\@writefile{lof}{\defcounter {refsection}{0}\relax }\@writefile{lof}{\contentsline {figure}{\numberline {2.21}{\ignorespaces Peak and average powers for square and sech$^2$ pulses.*Pulse duration 2ns used just for visualization.\relax }}{39}{figure.caption.53}\protected@file@percent }
\newlabel{fig:power_avg_peak}{{2.21}{39}{Peak and average powers for square and sech$^2$ pulses.*Pulse duration 2ns used just for visualization.\relax }{figure.caption.53}{}}
\@writefile{toc}{\defcounter {refsection}{0}\relax }\@writefile{toc}{\contentsline {section}{\numberline {2.5}Folders}{39}{section.2.5}\protected@file@percent }
\newlabel{sec:Folders}{{2.5}{39}{Folders}{section.2.5}{}}
\@writefile{lof}{\defcounter {refsection}{0}\relax }\@writefile{lof}{\contentsline {figure}{\numberline {2.22}{\ignorespaces Ray tracing for \textbf  {HRS} setup with different positions of cuvette filled by ethanol (lightpath - 10mm, wall thickness - 2mm): (a) focusing at the air/glass interface of first wall, (b) focusing with cuvette shifted by 14mm (expected glass/air interface of second wall)\relax }}{40}{figure.caption.54}\protected@file@percent }
\newlabel{fig:HRS_refocusing}{{2.22}{40}{Ray tracing for \textbf {HRS} setup with different positions of cuvette filled by ethanol (lightpath - 10mm, wall thickness - 2mm): (a) focusing at the air/glass interface of first wall, (b) focusing with cuvette shifted by 14mm (expected glass/air interface of second wall)\relax }{figure.caption.54}{}}
\@writefile{toc}{\defcounter {refsection}{0}\relax }\@writefile{toc}{\contentsline {chapter}{\numberline {3}hyperspectralViewer}{41}{chapter.3}\protected@file@percent }
\@writefile{lof}{\defcounter {refsection}{0}\relax }\@writefile{lof}{\addvspace {10\p@ }}
\@writefile{lot}{\defcounter {refsection}{0}\relax }\@writefile{lot}{\addvspace {10\p@ }}
\@writefile{toc}{\defcounter {refsection}{0}\relax }\@writefile{toc}{\contentsline {chapter}{\numberline {4}Writing scripts}{42}{chapter.4}\protected@file@percent }
\@writefile{lof}{\defcounter {refsection}{0}\relax }\@writefile{lof}{\addvspace {10\p@ }}
\@writefile{lot}{\defcounter {refsection}{0}\relax }\@writefile{lot}{\addvspace {10\p@ }}
\abx@aux@read@bbl@mdfivesum{012B03E8FD43AC4704BC5459C124078B}
\abx@aux@refcontextdefaultsdone
\abx@aux@defaultrefcontext{0}{diels_control_1985}{nty/global//global/global}
\abx@aux@defaultrefcontext{0}{young_pragmatic_2015}{nty/global//global/global}
\abx@aux@defaultlabelprefix{0}{diels_control_1985}{}
\abx@aux@defaultlabelprefix{0}{young_pragmatic_2015}{}
\abx@aux@page{3}{43}
\abx@aux@page{4}{43}
\gdef \@abspage@last{44}
