wavelength	transmittance
349.1972353834698	0.9011833783566164
352.1972353834698	0.9511833783566164
352.3272692597026	0.9433393301198092
354.949619097064	0.9520863061961025
354.7112236573038	0.9431947685245252
357.9187259377127	0.9610029805699947
357.8103643741854	0.950412290419422
357.6400819172138	0.942969528029292
359.47913245250624	0.936007320939036
360.6711096513069	0.9554073495864712
360.6711096513069	0.9479046402747754
362.10148228986753	0.9412842939586696
360.9095050910669	0.9333154765819712
363.6402164919556	0.9583749059707866
363.6748921922844	0.9479392376003883
365.20062300674914	0.939488144249932
364.7919451100175	0.9298229191319544
365.3913393585572	0.9259272420616316
366.39260020554974	0.9585199843848489
366.39260020554974	0.9510172750731527
367.9313344076378	0.9427341410102984
367.7435076975237	0.9364254875311688
369.3617070461985	0.9560878636130192
370.2069272417117	0.965180063274248
370.6837181212319	0.9424624022403773
372.3048071116007	0.9581725867534501
372.034625613206	0.93954149584992
373.4649982517666	0.9492291218571531
374.9748360369141	0.9597501948145541
375.2132314766742	0.9529763533214332
377.8355813140356	0.9559920931179584
377.665298857064	0.9483706947918356
379.231897461202	0.9392565672481764
378.8686282196628	0.9299385826876331
379.5043493923564	0.9228928729359303
379.5043493923564	0.9153901636242342
379.7427448321165	0.9078452103407444
379.7427448321165	0.9003425010290484
379.7427448321165	0.8929439960133485
380.3983322914569	0.8846582082848461
380.0492532546653	0.8755709283408296
379.5043493923564	0.9501527167684252
380.9347220309172	0.8669943150434218
382.7118516727653	0.9125179279322632
382.12669922971776	0.9020041472310244
382.12669922971776	0.8948140508073158
382.20616437630446	0.8834555951259776
382.12669922971776	0.875119438864114
384.51065362731896	0.9233343543022028
385.0669096534259	0.9410390890055621
384.7490490670791	0.931383573914481
385.5725969498868	0.9558222755544873
385.4642353863594	0.9476377573296353
384.8444072429832	0.9113761241819336
386.1113087228512	0.9658570966845368
388.3249806634809	0.9515386713887288
388.9720539999727	0.9617417231159555
390.3513419014419	0.9432496507032017
390.8996514128902	0.9328070870616146
391.8532331719307	0.9571261207334462
391.7101959080746	0.947497981135474
393.21208717856337	0.9652821122655603
392.37770313940297	0.9376178395655664
394.523262097244	0.9514719506524437
395.9536347358048	0.9656195205282959
396.1920301755649	0.9569908425664502
397.4490243124819	0.9468137494213218
397.8391259411802	0.9358429589373009
398.9574172767823	0.9591100880653743
400.0063572117268	0.9676106847036888
400.2182642692914	0.9468387952544012
402.049746695385	0.9540295342534192
401.6751252900477	0.9378043202751272
402.86710248884833	0.9624458250111501
403.5482323167344	0.946523290777522
404.7742660069293	0.9371023156743451
405.7278477659697	0.963376916634364
405.4894523262096	0.9546764201721123
406.1365256627014	0.9472317300560544
407.63501128405073	0.936192464734967
408.207160339475	0.9655906207037591
408.3501976033311	0.9582126191952208
408.9972709398229	0.9502617939271832
408.87466757080335	0.9423306475279939
409.5421748021317	0.9303872608973704
410.7341520009323	0.9381997718300752
411.2109428804525	0.9669590330181179
411.2109428804525	0.9571638291945151
411.7899032341557	0.9481115762983496
413.3565018382936	0.9397566514826596
413.1181063985336	0.9308998485764144
412.8797109587734	0.9248148799436564
414.4292813172142	0.9611681041695113
414.071688157574	0.95215527594597
414.97759082866247	0.9450672472553536
416.1695680274631	0.9351233461503784
416.2172471154151	0.9272453889224184
416.7893961708394	0.9633195667880068
416.9324334346954	0.95589988356107
417.6476197539759	0.9478744660092082
419.0779923925365	0.9420009171477388
418.6012015130163	0.9307678261243189
419.7931787118169	0.9668137467406794
419.7931787118169	0.9571435880722712
420.3176486792892	0.9285486922935599
421.8087037934252	0.9489161682095322
421.7003422298979	0.9381739081738748
422.9519182886385	0.9602101649466541
422.4155285491783	0.9282380785287572
423.6075057479789	0.9247270559632544
424.2034943473792	0.968178841760004
424.6564456829234	0.9463573938970365
424.7041247708754	0.937291507694725
425.68495172303136	0.957010601757212
426.2298555853402	0.9312857418236359
425.9914601455801	0.9253466592052725
427.6602282239009	0.9470519517639562
427.4218327841408	0.93862933342436
428.0069852271884	0.9683403873833661
428.5456970001528	0.9571824906524569
430.4017757811423	0.9490948370044896
430.2825780612623	0.940029344379555
430.4017757811423	0.9320574346091804
431.18848073235074	0.9672870516491465
431.4064422772743	0.9591407389076292
433.1910024263357	0.9475251941998237
433.3817187781439	0.939240502865443
433.3817187781439	0.93314455154969
433.3817187781439	0.9712833238841442
433.9538678335681	0.9625288136123494
434.04922600947214	0.9555260600200752
436.1894872908741	0.9469623660562476
435.670314999841	0.9377658246593045
435.2888822962248	0.9318896019705756
437.06601193807296	0.9671822476161954
436.95765037454566	0.9566862886438008
439.0555302444348	0.9478864982318754
438.6945314356551	0.9375979197309772
439.5118872291184	0.9301826006613496
440.29518653118737	0.9660568037358811
439.8183956516671	0.9575131759710187
441.8339207332754	0.9472774551309068
441.6778800817961	0.9372514752529538
442.67914092878857	0.929996494787386
442.4407454890285	0.9727625001174484
442.67914092878857	0.9643839124659922
442.67914092878857	0.9568812031542965
444.7055021667496	0.9465601986968514
444.5863044468695	0.9379115232558998
445.0290388349955	0.9314200400632852
446.2550725251904	0.9558307263934036
446.663750421922	0.9648211046420753
447.6854451637511	0.9455371786434468
449.1158178023118	0.951516868451497
449.1158178023118	0.9356778154601391
449.8310041215922	0.9641586362721308
451.8573653595532	0.9536552742966932
451.8176327862599	0.9449803603639443
451.9765630794333	0.9383109105846174
451.9765630794333	0.9684884747049942
452.0719212553373	0.96123563080233
453.8837265975143	0.9308037032457563
454.1698011252264	0.9243423621899431
454.8373083565548	0.9535874602899166
454.5989129167946	0.9433065320050623
454.8373083565548	0.9370537119919201
456.69679278668366	0.9652261680526919
457.5073372818681	0.9308368387125404
457.5921001048939	0.9533030850169113
457.3801930473294	0.9441336067500792
458.6516353927167	0.9385035760815305
459.8436125915173	0.9652812688854668
459.30722285205707	0.9256588504032127
460.5111198228456	0.9459602180983419
460.3680825589896	0.9323306335341316
461.5123806698381	0.9559770996940741
462.1481018425318	0.9705207833344294
462.4659624288786	0.9641288368421609
463.70561871563126	0.9454525032820604
463.9758002140261	0.9572477923682671
464.3135270870196	0.9366666473834574
466.4590860448607	0.9496350219543706
467.1038373478483	0.9610865007562226
466.893306310138	0.9392284545783931
469.5118720929	0.9486899833233141
470.1740816477892	0.959525668291887
469.791204123326	0.9367531960709304
472.34853702257095	0.968576840493214
472.27423195043787	0.9473436988037044
472.7169663385639	0.9570187678184348
474.1473389771246	0.9686862754495875
474.86252529640495	0.9611818793777048
475.2333626471429	0.9486764892418184
474.922124156345	0.938282844769284
476.5789724626778	0.9561760249454587
476.2928979349657	0.9355442490423698
478.1523823650946	0.9651755652470824
477.9139869253345	0.9464193542212384
479.0174172465099	0.9536693707925415
481.0608067301681	0.9639182542037059
480.9307728539353	0.9433770522112636
482.0143884892086	0.9538186089081329
483.7915181310568	0.9695729490545445
483.8261938313855	0.9595351516324938
484.15994744704966	0.9455293070959075
485.7691166654305	0.9497457858733158
486.5439018446509	0.9686570382730132
486.5439018446509	0.96084171607333
486.686939108507	0.9382707282086077
488.318623451754	0.9529527386788152
489.5130086852997	0.9697868098006758
489.64304256153247	0.9602091810032118
489.26160985791626	0.9410156492862228
491.3714094997933	0.9512174841364576
491.3118106398533	0.9686457932051
492.02699695913367	0.960307762765251
492.1859272523071	0.93967493732249
492.92097985823415	0.9323789029881492
494.2321547769148	0.9487879872138077
495.09964929381965	0.966274895580798
495.205602822602	0.9571741371734356
495.205602822602	0.9407098584061028
496.3181148748159	0.9728855211604188
497.8279526599633	0.9617529414098972
497.9868829531367	0.9532078143026466
497.9868829531367	0.9457051049909508
498.78153441900383	0.9411182417891512
500.8476282302582	0.9677479869829092
500.949797704441	0.9573689981359889
500.2516396308579	0.9495553225355355
501.3244191097784	0.943613147523496
502.51639630857903	0.9728709025721316
503.2315826278594	0.9629906485515453
503.2315826278594	0.9554879392398492
503.46997806761954	0.9486098934507323
504.2116527690954	0.9397160442929728
504.9003507061802	0.9294329294671355
507.0723980462169	0.9542978986916336
506.5691187845011	0.9445386166127534
506.6167978724531	0.9369732722727809
507.5822994034816	0.9642308389790236
506.3307233447409	0.9285959215787952
508.4762823025821	0.9721482570244687
509.9543340290948	0.964100199402542
510.2131633636915	0.9539530677916092
510.8602367001832	0.946638633045546
511.507310036675	0.9411775461354075
513.4825865375446	0.9606360846723534
513.8912644342762	0.9710934428802382
513.7686610652568	0.9525870490702776
514.5950985897584	0.9456659346710531
515.8665409351458	0.9702551498412794
516.104936374906	0.9620224482042175
516.104936374906	0.9545197388925216
516.7247645182822	0.946077729058035
516.8201226941862	0.9378245239138111
517.0108390459943	0.931696861506543
517.7260253652747	0.9235672396586856
519.8927750288723	0.9436388237618978
519.5855097954037	0.933066285877014
520.3619977991939	0.9549116295092971
519.4424725315477	0.9245010300981988
520.9920428899884	0.9631832203395588
522.3372743000634	0.9689298918137359
523.5428740954217	0.955314990095344
524.3806637837215	0.945434446915868
525.3070003496466	0.9433064945215028
526.5943357243513	0.9578086963557781
527.7863129231519	0.96758719500627
528.580964389019	0.948759078018381
529.6934764412329	0.9551575752089415
529.4550810014728	0.9666801553338703
530.170267320753	0.9379806054564466
530.7530117290556	0.9256900710848219
531.4576026954578	0.9170325057929589
533.746198917155	0.9382222619659016
533.2694080376347	0.9282197740570984
534.3421875165552	0.9503346057419212
533.4124453014907	0.9185284371774536
534.8322225871732	0.9606236242284132
535.8917578749961	0.9683843453761176
537.6201248132569	0.9547816084115505
538.0373168328371	0.9456106464204798
537.5605259533169	0.9660358129424432
538.6843901693288	0.9393270898883748
540.8185969633719	0.9513005883119662
540.5404689503184	0.9402382215160427
542.0423602208072	0.962023797612367
544.2091098844047	0.951223122288564
543.9972028268401	0.9626860946288955
544.6783326547262	0.9400274969755408
545.1891800256408	0.9312135859711929
546.3811572244414	0.9251408744624604
548.1293904493489	0.9362779272511074
548.5267161822824	0.9464195416390367
548.9439082018627	0.9556145868172216
548.0499253027622	0.925058785466694
550.1478051726513	0.9650682872991904
552.3410432184444	0.9544967989539783
551.8642523389242	0.9666273035146784
552.8178340979646	0.944012722270012
554.0098112967653	0.939737534867207
556.0759051080196	0.9528624032999125
555.7977770949661	0.9416089952946636
557.2996683654549	0.9641135810333585
559.2545109714879	0.965567830699455
559.5723715578347	0.9570223287566073
560.2676915904684	0.9479288640252383
561.0935615067802	0.9420430950770704
563.7363452389782	0.9539697426208862
562.9734798317459	0.9425924327090136
564.9283224377788	0.964970905011062
566.8831650438118	0.9668002901427433
567.359955923332	0.9584628219562896
567.5983513630922	0.9503343246152237
568.0751422426124	0.9418926521327744
568.4497636479498	0.9338084924880516
569.607684355356	0.9275535037832404
571.8894692787743	0.9367568047154516
571.1742829594939	0.9271925371032265
573.0814464775749	0.9477510201525609
575.3064705820027	0.947919446280861
576.1805871944565	0.939893653893402
577.3725643932571	0.9355142621946012
579.4386582045115	0.9441930806648202
578.8029370318179	0.9353024800822357
580.4376486187443	0.9542340338456125
582.0212754685795	0.9591316223704279
584.1429948824446	0.9506704396951494
585.4780093451013	0.942789446298853
588.0050010065586	0.9507238537677373
587.146777423422	0.9424728976370962
589.7691272607834	0.9595214826277192
591.7716489547685	0.9566546150358453
592.7660985034821	0.9481313354891114
594.0602451764656	0.9440196567285588
596.6031298672403	0.9522110639773392
595.9674086945465	0.9452656102533425
598.2917642322077	0.9604218533501203
600.735317489749	0.9572118081509449
602.1656901283097	0.9535575626887188
604.6796784021437	0.9596252552948457
607.2060508546665	0.9608697484211991
608.602367001833	0.9532595416150474
609.6581182350565	0.9460371825560163
612.3083324744675	0.9492626185291492
613.8470666765556	0.9592910212080981
615.5158347548766	0.9660603646740537
617.5183564488616	0.9642216461360045
618.6490319631524	0.9570914056023596
620.522138989839	0.9537524504252433
623.3828842669606	0.95708024085636
626.2436295440821	0.9605903888054697
628.150793062163	0.969182745197956
630.177154300124	0.9755865302478329
632.4419109778452	0.9742525840666281
632.759771564192	0.9668533293797336
633.7530858965258	0.9592440730495602
635.4814528347868	0.9529095857306984
637.925006092328	0.9591994988498044
639.832169610409	0.9694764913608889
642.0571937148367	0.9700617346731719
642.9313103272905	0.962556963765692
643.4081012068107	0.9546363127632218
643.884892086331	0.9477577047207092
645.0768692851316	0.9400090407847117
646.8251025100392	0.9581364650964084
646.7456373634525	0.9484803877519316
647.3927106999442	0.9675631341307984
647.7332756138871	0.9399630788007803
648.5733357349468	0.9324286155592156
648.4144054417733	0.9237591929679639
648.4144054417733	0.916256483656268
648.4144054417733	0.9087537743445722
648.4825184245619	0.9005720878322765
648.4144054417733	0.9707761713212583
648.9971498500759	0.8900512022926742
648.8911963212936	0.8794920835221669
648.8911963212936	0.8719893742104711
648.8911963212936	0.8644866648987751
648.8911963212936	0.8569839555870793
648.8911963212936	0.8494812462753834
648.8911963212936	0.8419785369636875
648.8911963212936	0.8344758276519916
648.8911963212936	0.8269731183402956
648.8911963212936	0.8194704090285998
648.8911963212936	0.811967699716904
649.1295917610537	0.8040476109678292
649.1295917610537	0.7966491059521291
648.8911963212936	0.9563948539670496
648.8911963212936	0.9470164673274301
649.3679872008138	0.7884580860334655
649.3679872008138	0.7809553767217696
649.3679872008138	0.7734526674100737
649.3679872008138	0.7659499580983778
649.3679872008138	0.7584472487866819
649.3679872008138	0.7509445394749861
649.3679872008138	0.7434418301632901
649.3679872008138	0.7359391208515942
649.3679872008138	0.7284364115398984
649.3679872008138	0.7209337022282025
649.3679872008138	0.7134309929165066
649.3679872008138	0.7059282836048106
649.6063826405739	0.6984875346173166
649.3679872008138	0.6909228649814189
649.3679872008138	0.6834201556697229
649.3679872008138	0.6759174463580271
649.3679872008138	0.6684147370463314
649.6063826405739	0.6602445579868668
649.4361001836023	0.6524445237247513
649.6328710227695	0.5987639608767593
649.844778080334	0.6446550330525029
649.844778080334	0.6371523237408071
649.844778080334	0.6296496144291112
649.844778080334	0.6221469051174153
649.844778080334	0.6146441958057194
649.6063826405739	0.6078297971009913
650.023574660154	0.5870400561063915
649.844778080334	0.57713064924724
649.844778080334	0.5696279399355441
649.844778080334	0.5621252306238482
649.844778080334	0.5546225213121523
649.844778080334	0.5471198120004565
649.844778080334	0.5396171026887605
649.844778080334	0.5321143933770646
649.844778080334	0.5246116840653687
649.844778080334	0.5171089747536728
649.9128910631225	0.5089987426157743
650.1308526080461	0.4986016170807481
650.4010341064409	0.4874719610478842
650.3215689598542	0.47909412306762245
650.3215689598542	0.47159141375592645
650.3215689598542	0.46408870444423056
650.3215689598542	0.4565859951325347
650.3215689598542	0.44908328582083884
650.3215689598542	0.4415805765091429
650.3215689598542	0.434077867197447
650.3215689598542	0.4265751578857511
650.3215689598542	0.41907244857405523
650.3215689598542	0.41156973926235935
650.3215689598542	0.40406702995066346
650.5599643996144	0.3969180529919576
650.3215689598542	0.3890616113272717
650.3215689598542	0.38155890201557585
650.5599643996144	0.37326367780091635
650.3896819426428	0.3651956896348117
650.7983598393745	0.3577991980217475
650.7983598393745	0.3502964887100516
650.7983598393745	0.3427937793983557
650.7983598393745	0.33529107008665976
650.7983598393745	0.3277883607749639
650.7983598393745	0.320285651463268
650.7983598393745	0.31278294215157204
650.7983598393745	0.30528023283987626
650.7983598393745	0.29777752352818027
650.7983598393745	0.2902748142164845
650.7983598393745	0.2827721049047885
650.7983598393745	0.2752693955930927
650.7983598393745	0.26776668628139677
650.7983598393745	0.26026397696970094
650.8664728221631	0.25220733561260017
651.2751507188948	0.2447572532187381
651.2751507188948	0.2372545439070423
651.2751507188948	0.22975183459534637
651.2751507188948	0.22224912528365054
651.2751507188948	0.21474641597195457
651.2751507188948	0.20724370666025863
651.5135461586549	0.19955286736237468
651.2751507188948	0.19223828803686685
651.2751507188948	0.18473557872517105
651.3432637016833	0.17664321018087178
651.6724764518283	0.1681869994320489
651.751941598415	0.1599755134897832
651.751941598415	0.1524728041780874
651.751941598415	0.14497009486639142
651.751941598415	0.13746738555469562
651.751941598415	0.12996467624299968
651.9903370381751	0.12212795093072173
652.3346860067174	0.1111509529420394
652.2287324779352	0.10070298542059447
652.2287324779352	0.09320027610889867
652.0698021847618	0.0854478513224099
652.7651222173955	0.07591151833305901
652.7055233574555	0.06618939808000192
652.9915978851676	0.05906114952981611
653.0763607081935	0.04883503470377874
653.7385702630827	0.03855198235054089
653.8498214683041	0.03079892034353705
654.3742914357763	0.021825693500830426
654.8510823152965	0.01343612316637902
656.360920100444	0.005130953313876461
658.5632398772757	0.00049114904631395
661.5261546285799	-0.00033458700014193704
664.3868999057014	-0.0008623555208686181
667.2476451828229	-0.000869102561616586
670.1083904599443	-0.0008758496023644111
672.9691357370657	-0.000882596643112378
675.8298810141872	-0.0008893436838603461
678.6906262913087	-0.000896090724608313
681.5513715684301	-0.000902837765356139
684.4121168455516	-0.0009095848061041061
687.2728621226731	-0.000916331846852074
690.1336073997945	-0.000923078887600041
692.9943526769159	-0.000929825928347867
695.8550979540374	-0.000936572969095834
698.7158432311589	-0.000943320009843802
701.5765885082803	-0.000950067050591627
704.4373337854017	-0.000956814091339595
707.2980790625232	-0.000963561132087562
710.1588243396448	-0.0009703081728355301
713.0195696167661	-0.000977055213583355
715.8803148938875	-0.000983802254331323
718.741060171009	-0.00099054929507929
721.6018054481306	-0.0009972963358272579
724.462550725252	-0.001004043376575083
727.3232960023735	-0.00101079041732305
730.184041279495	-0.001017537458071018
733.0447865566164	-0.0010242844988189851
735.9055318337378	-0.001031031539566811
738.7662771108593	-0.0010377785803147778
741.6270223879808	-0.001044525621062746
744.4877676651022	-0.001051272661810571
747.3485129422236	-0.001058019702558539
750.2092582193451	-0.001064766743306506
753.0700034964666	-0.001071513784054474
755.930748773588	-0.001078260824802299
758.7914940507094	-0.001085007865550267
761.6522393278309	-0.001091754906298234
764.5129846049524	-0.0010985019470462019
767.3737298820738	-0.001105248987794027
770.2344751591952	-0.001111996028541995
773.0952204363168	-0.001118743069289962
775.9559657134382	-0.00112549011003793
778.8167109905596	-0.0011322371507857549
781.6774562676811	-0.001138984191533722
784.5382015448026	-0.00114573123228169
787.398946821924	-0.001152478273029515
790.2596920990454	-0.001159225313777483
793.1204373761669	-0.00116597235452545
795.9811826532884	-0.001172719395273418
798.8419279304098	-0.001179466436021243
801.7026732075312	-0.0011862134767692111
804.5634184846527	-0.001192960517517178
807.4241637617743	-0.001199707558265146
810.2849090388956	-0.001206454599012971
813.145654316017	-0.001213201639760939
816.0063995931387	-0.001219948680508906
818.8671448702601	-0.001226695721256874
821.7278901473815	-0.0012334427620046989
824.588635424503	-0.001240189802752667
827.4493807016245	-0.0012469368435006338
830.3101259787459	-0.0012536838842484598
833.1708712558673	-0.0012604309249964272
836.0316165329887	-0.0012671779657443948
838.8923618101103	-0.0012739250064923622
841.7531070872317	-0.0012806720472401869
844.6138523643531	-0.001287419087988155
847.4745976414747	-0.001294166128736122
850.3353429185961	-0.00130091316948409
853.1960881957175	-0.0013076602102319148
856.0568334728389	-0.001314407250979883
858.9175787499605	-0.00132115429172785
861.7783240270819	-0.001327901332475818
864.6390693042033	-0.001334648373223643
867.4998145813247	-0.0013413954139716111
870.3605598584463	-0.001348142454719578
873.2213051355677	-0.001354889495467404
876.0820504126891	-0.001361636536215371
878.9427956898105	-0.001368383576963339
881.8035409669321	-0.001375130617711306
884.6642862440535	-0.001381877658459132
887.5250315211749	-0.001388624699207099
890.3857767982965	-0.001395371739955067
893.2465220754179	-0.0014021187807030338
896.1072673525393	-0.001408865821450859
898.9680126296607	-0.001415612862198827
901.8287579067824	-0.001422359902946794
904.6895031839038	-0.001429106943694762
907.5502484610251	-0.0014358539844425869
910.4109937381464	-0.0014426010251905549
913.2717390152682	-0.0014493480659385218
916.1324842923896	-0.001456095106686348
918.993229569511	-0.001462842147434315
921.8539748466324	-0.0014695891881822832
924.714720123754	-0.0014763362289302502
927.5754654008754	-0.001483083269678076
930.4362106779968	-0.0014898303104260429
933.2969559551184	-0.0014965773511740111
936.1577012322398	-0.001503324391921978
939.0184465093612	-0.0015100714326698038
941.8791917864826	-0.0015168184734177708
944.7399370636042	-0.001523565514165739
947.6006823407256	-0.001530312554913706
950.461427617847	-0.001537059595661531
953.3221728949684	-0.001543806636409499
956.18291817209	-0.001550553677157466
958.0900816901708	-0.001555051704322778
