wavelength	transmittance
200	0.0008058
201	0.000801
202	0.00082631
203	0.00078808
204	0.00076729
205	0.00074194
206	0.00078106
207	0.0007707
208	0.00076265
209	0.0007523
210	0.00079019
211	0.00075574
212	0.00077524
213	0.00075574
214	0.00073738
215	0.0007351
216	0.00077979
217	0.00071794
218	0.00073856
219	0.00076601
220	0.00079684
221	0.00078538
222	0.00077736
223	0.00073179
224	0.00075909
225	0.0007659
226	0.00074887
227	0.00073754
228	0.00077489
229	0.00071046
230	0.00073533
231	0.00076692
232	0.00073422
233	0.0007331
234	0.00078266
235	0.00075113
236	0.00074775
237	0.00074549
238	0.00075902
239	0.00074324
240	0.00077482
241	0.00073533
242	0.00073081
243	0.00075678
244	0.00073871
245	0.00075791
246	0.00077485
247	0.00072742
248	0.00073645
249	0.00075565
250	0.00072968
251	0.00075113
252	0.00075789
253	0.0007331
254	0.00072861
255	0.00076126
256	0.000732
257	0.0007455
258	0.00074438
259	0.00073315
260	0.00072642
261	0.00076572
262	0.0007253
263	0.00075337
264	0.00075224
265	0.00073316
266	0.00071745
267	0.0007646
268	0.00071632
269	0.00075
270	0.00076684
271	0.00072866
272	0.0007208
273	0.00076573
274	0.00073427
275	0.00075337
276	0.00077918
277	0.0007197
278	0.00071634
279	0.00080274
280	0.00075897
281	0.00074776
282	0.00073655
283	0.00071303
284	0.00073096
285	0.00075224
286	0.00073769
287	0.00073098
288	0.00078019
289	0.00068516
290	0.00071423
291	0.00074441
292	0.0007567
293	0.00072209
294	0.00075223
295	0.00074107
296	0.00071988
297	0.00075223
298	0.00074443
299	0.00070431
300	0.00075668
301	0.00076336
302	0.00078117
303	0.00085462
304	0.0008301
305	0.00073888
306	0.00078112
307	0.00071667
308	0.00071668
309	0.00076999
310	0.00076332
311	0.00072781
312	0.000801
313	0.00076108
314	0.00073671
315	0.00075997
316	0.00073118
317	0.00072566
318	0.00076771
319	0.00075672
320	0.00073882
321	0.00077013
322	0.00071199
323	0.00075224
324	0.00078464
325	0.00087735
326	0.00120358
327	0.00206007
328	0.00291215
329	0.00275669
330	0.00260054
331	0.00279854
332	0.00273909
333	0.00363301
334	0.0046652
335	0.00356189
336	0.00175587
337	0.00098608
338	0.00084464
339	0.00079676
340	0.00079116
341	0.00093127
342	0.00139151
343	0.002327
344	0.0066482
345	0.02268014
346	0.03930341
347	0.04202561
348	0.07589077
349	0.1415886
350	0.19362914
351	0.22012819
352	0.2080536
353	0.19898374
354	0.2149259
355	0.20980945
356	0.18191443
357	0.15106236
358	0.10232406
359	0.08910249
360	0.10347155
361	0.09064016
362	0.06696778
363	0.06490831
364	0.08352799
365	0.10510838
366	0.11328203
367	0.10521084
368	0.09365841
369	0.08633783
370	0.07867697
371	0.06746197
372	0.05606253
373	0.04685811
374	0.03497536
375	0.01827212
376	0.00525153
377	0.00088835
378	0.00081266
379	0.00076427
380	0.00073574
381	0.00075219
382	0.00076644
383	0.00075548
384	0.00076644
385	0.00074452
386	0.00073686
387	0.00075
388	0.00078064
389	0.00074344
390	0.00074344
391	0.00077077
392	0.00074344
393	0.00074672
394	0.00076747
395	0.00075546
396	0.00074454
397	0.00075109
398	0.00075654
399	0.00077397
400	0.00077288
401	0.00073911
402	0.00074782
403	0.0007783
404	0.00077393
405	0.00076522
406	0.00076087
407	0.00076847
408	0.00072827
409	0.00075326
410	0.00074674
411	0.00076845
412	0.00076627
413	0.00077169
414	0.00071313
415	0.00074675
416	0.00072616
417	0.00077166
418	0.00076299
419	0.00073809
420	0.00074026
421	0.00077056
422	0.00076081
423	0.00077378
424	0.00075756
425	0.00075216
426	0.00074352
427	0.00076944
428	0.00074029
429	0.00077482
430	0.00075647
431	0.00074784
432	0.00076078
433	0.0008082
434	0.00078017
435	0.000764
436	0.00076292
437	0.00073816
438	0.00074354
439	0.00077367
440	0.00076505
441	0.00076935
442	0.00076504
443	0.00073926
444	0.00075859
445	0.00080908
446	0.00081764
447	0.00089055
448	0.00101602
449	0.0011479
450	0.001357
451	0.00190283
452	0.00289269
453	0.00482902
454	0.00914897
455	0.01743375
456	0.0297266
457	0.04392273
458	0.06084438
459	0.08983184
460	0.1336872
461	0.16998174
462	0.18575007
463	0.22515696
464	0.33483163
465	0.46032654
466	0.48727177
467	0.39395406
468	0.27788061
469	0.22858291
470	0.24707323
471	0.28848342
472	0.34781608
473	0.47289257
474	0.63041888
475	0.67113253
476	0.56849665
477	0.4735666
478	0.42972638
479	0.36267933
480	0.29095541
481	0.2843469
482	0.3683423
483	0.53710629
484	0.7378477
485	0.88658738
486	0.95708101
487	0.97897278
488	0.9819651
489	0.98086839
490	0.97944761
491	0.97976326
492	0.98110737
493	0.98119912
494	0.98140981
495	0.98209387
496	0.98130635
497	0.98110398
498	0.98252411
499	0.9829078
500	0.98221892
501	0.98224502
502	0.98231103
503	0.98144406
504	0.98108362
505	0.98104568
506	0.98000176
507	0.97841379
508	0.97755977
509	0.97830418
510	0.97878815
511	0.97803611
512	0.97828234
513	0.97927323
514	0.97892625
515	0.97812171
516	0.97880046
517	0.97922618
518	0.97825527
519	0.9785461
520	0.97989267
521	0.9794896
522	0.97946961
523	0.98015148
524	0.98022546
525	0.98027742
526	0.98037969
527	0.98033254
528	0.98061131
529	0.98062632
530	0.98026093
531	0.97971501
532	0.97908915
533	0.97848998
534	0.97798854
535	0.97713498
536	0.97704504
537	0.97850848
538	0.97968306
539	0.98093358
540	0.98248971
541	0.98210733
542	0.98092862
543	0.9807829
544	0.98050151
545	0.98010175
546	0.9806531
547	0.98050639
548	0.97982833
549	0.98041167
550	0.98048022
551	0.97870753
552	0.97837472
553	0.97906383
554	0.97899812
555	0.97920691
556	0.97955566
557	0.97881703
558	0.97851289
559	0.97862821
560	0.97880449
561	0.97843377
562	0.97534273
563	0.9702865
564	0.96547678
565	0.96531478
566	0.97077384
567	0.97748892
568	0.98244485
569	0.98433085
570	0.98243584
571	0.98033021
572	0.98047384
573	0.98155113
574	0.98221833
575	0.98189569
576	0.9802489
577	0.97913976
578	0.97996416
579	0.98120439
580	0.98150421
581	0.98115305
582	0.97958006
583	0.97804697
584	0.97826596
585	0.97910641
586	0.97973285
587	0.9799153
588	0.97813521
589	0.97697061
590	0.97771624
591	0.97845316
592	0.97760769
593	0.97675875
594	0.97568131
595	0.97492429
596	0.97587372
597	0.97742495
598	0.97925176
599	0.98084735
600	0.97952837
601	0.97868988
602	0.98016708
603	0.97962088
604	0.97776482
605	0.97727377
606	0.97750527
607	0.97774788
608	0.97730263
609	0.97622933
610	0.97778419
611	0.97966144
612	0.97770466
613	0.97672357
614	0.97873073
615	0.97958183
616	0.97997553
617	0.98107371
618	0.97996576
619	0.97905996
620	0.98053334
621	0.98040504
622	0.98021501
623	0.98151731
624	0.98181534
625	0.98122216
626	0.98063214
627	0.97887176
628	0.97919215
629	0.98162193
630	0.98195433
631	0.9791832
632	0.97722858
633	0.97669438
634	0.97930002
635	0.98342465
636	0.98296899
637	0.97900851
638	0.97718537
639	0.9788917
640	0.98258482
641	0.98467934
642	0.98315208
643	0.98037688
644	0.97972961
645	0.98041591
646	0.98239886
647	0.98375812
648	0.9824839
649	0.98075021
650	0.98015689
651	0.98104845
652	0.98235858
653	0.98323205
654	0.98238279
655	0.98208917
656	0.98241059
657	0.98225301
658	0.98208674
659	0.98278614
660	0.98251563
661	0.98270375
662	0.98278966
663	0.98125871
664	0.98008395
665	0.98088372
666	0.98114834
667	0.98120689
668	0.98227915
669	0.98289701
670	0.98271709
671	0.98367153
672	0.98347241
673	0.98348101
674	0.98364547
675	0.98255036
676	0.98199009
677	0.98262599
678	0.98203995
679	0.98289174
680	0.98383367
681	0.98334171
682	0.9821436
683	0.98292773
684	0.9833857
685	0.98449308
686	0.98597259
687	0.98631477
688	0.98558527
689	0.98651678
690	0.98637699
691	0.98657918
692	0.98596377
693	0.98456665
694	0.98409246
695	0.98466405
696	0.9835432
697	0.98255413
698	0.9826214
699	0.98268649
700	0.98409263
701	0.98547805
702	0.98384764
703	0.98225972
704	0.98271752
705	0.9841095
706	0.9849609
707	0.98437621
708	0.98209245
709	0.98302637
710	0.98527623
711	0.98640592
712	0.98519703
713	0.98302412
714	0.98156863
715	0.98214444
716	0.98537782
717	0.98673531
718	0.98466014
719	0.98029243
720	0.97838958
721	0.98188362
722	0.98653595
723	0.98467957
724	0.97918286
725	0.97744702
726	0.98040565
727	0.98541873
728	0.98491369
729	0.97928251
730	0.97690591
731	0.98079453
732	0.98512146
733	0.98544784
734	0.98308066
735	0.98151965
736	0.98420909
737	0.9870789
738	0.98581716
739	0.98326294
740	0.98370635
741	0.98560251
742	0.98621226
743	0.98445598
744	0.98309305
745	0.98527681
746	0.9873676
747	0.98582415
748	0.98235836
749	0.98155291
750	0.98371884
751	0.98638806
752	0.98679169
753	0.98462167
754	0.98458514
755	0.98654763
756	0.98734064
757	0.98637019
758	0.98561989
759	0.98620609
760	0.98796995
761	0.98802237
762	0.98560198
763	0.98512777
764	0.98666529
765	0.98765897
766	0.98718534
767	0.98615498
768	0.9855579
769	0.98745698
770	0.988591
771	0.98687623
772	0.9857528
773	0.98643877
774	0.98758007
775	0.98815924
776	0.9879879
777	0.98720539
778	0.98798027
779	0.98930536
780	0.9880108
781	0.98629255
782	0.98528563
783	0.98631245
784	0.98799881
785	0.98885571
786	0.98779423
787	0.98759864
788	0.98845849
789	0.98895452
790	0.98875612
791	0.98848803
792	0.98802248
793	0.98911281
794	0.98976936
795	0.98838808
796	0.98704023
797	0.98706399
798	0.98763037
799	0.98879273
800	0.98838605
801	0.98698313
802	0.98615426
803	0.98665232
804	0.9883456
805	0.99006896
806	0.99079735
807	0.99043419
808	0.99047327
809	0.99046039
810	0.98962449
811	0.98853068
812	0.98796316
813	0.98849249
814	0.98962556
815	0.9904558
816	0.98891767
817	0.98744125
818	0.98759784
819	0.98871307
820	0.99028334
821	0.99105129
822	0.9910731
823	0.99117812
824	0.99106099
825	0.99023113
826	0.98913248
827	0.98818586
828	0.98757406
829	0.98833873
830	0.98979645
831	0.99090351
832	0.99102878
833	0.99090904
834	0.99105359
835	0.99145901
836	0.99153457
837	0.99064037
838	0.98984384
839	0.98935316
840	0.98926716
841	0.98940886
842	0.98983531
843	0.99024021
844	0.99047164
845	0.99059304
846	0.99087603
847	0.99033282
848	0.98959151
849	0.98849203
850	0.98772458
851	0.98704911
852	0.98624953
853	0.98641277
854	0.98598416
855	0.98586073
856	0.986014
857	0.98658093
858	0.98804205
859	0.98896323
860	0.9872734
861	0.98497153
862	0.98490301
863	0.98463718
864	0.98439915
865	0.98440359
866	0.98409959
867	0.98356782
868	0.98352967
869	0.98341623
870	0.98353821
871	0.98419899
872	0.98459875
873	0.98520078
874	0.98572351
875	0.9856913
876	0.98562825
877	0.98572439
878	0.98559925
879	0.98532893
880	0.98525019
881	0.98506006
882	0.98472971
883	0.98470709
884	0.98487882
885	0.984978
886	0.98529314
887	0.98585946
888	0.98625608
889	0.98632643
890	0.98660411
891	0.98685858
892	0.98688407
893	0.98668784
894	0.98615855
895	0.98587113
896	0.98601659
897	0.98598329
898	0.98592525
899	0.98608704
900	0.9860485
901	0.9858919
902	0.98542583
903	0.984781
904	0.98404997
905	0.98359274
906	0.98343031
907	0.98293463
908	0.9824825
909	0.98261091
910	0.98307294
911	0.98394485
912	0.9844802
913	0.98475525
914	0.9852188
915	0.98540841
916	0.98479328
917	0.98369475
918	0.98287795
919	0.98206518
920	0.98192088
921	0.98269444
922	0.98375735
923	0.98469334
924	0.98496773
925	0.98531044
926	0.98540485
927	0.98509122
928	0.9843379
929	0.98400284
930	0.98418557
931	0.98422323
932	0.98435969
933	0.98453297
934	0.98419009
935	0.98333165
936	0.98225823
937	0.98102744
938	0.98019695
939	0.98028072
940	0.98139857
941	0.98272848
942	0.98381398
943	0.98440207
944	0.9847615
945	0.98512735
946	0.98533216
947	0.98500331
948	0.98426231
949	0.98301306
950	0.98190214
951	0.98188947
952	0.98266087
953	0.98373871
954	0.98478519
955	0.98505256
956	0.98487569
957	0.98463553
958	0.98449604
959	0.9846103
960	0.98417559
961	0.98332656
962	0.98263498
963	0.98312511
964	0.98408346
965	0.98439622
966	0.98440777
967	0.98368358
968	0.98286341
969	0.98257345
970	0.98273344
971	0.98261274
972	0.98139569
973	0.97970817
974	0.97924741
975	0.9799263
976	0.98092219
977	0.98087297
978	0.97974047
979	0.97892068
980	0.97927154
981	0.98101085
982	0.98294386
983	0.98382864
984	0.98376597
985	0.98324469
986	0.98246953
987	0.98129745
988	0.98013078
989	0.97990714
990	0.97932831
991	0.97769743
992	0.97459648
993	0.9677291
994	0.94946745
995	0.91664883
996	0.85304557
997	0.7156089
998	0.47605367
999	0.23259656
1000	0.07371978
1001	0.01510255
1002	0.00336059
1003	0.00170065
1004	0.00056932
1005	0.000099225
1006	0.000024269
1007	1.30885E-05
1008	9.01563E-06
1009	6.06684E-06
1010	1.90418E-06
1011	1.64619E-06
1012	5.3352E-06
1013	6.10214E-06
1014	6.73589E-06
1015	6.83313E-06
1016	3.14581E-06
1017	5.86489E-06
1018	5.89973E-06
1019	5.89232E-06
1020	5.93398E-06
1021	5.48126E-06
1022	2.85357E-06
1023	2.56152E-06
1024	5.70408E-06
1025	6.25398E-06
1026	6.41401E-06
1027	5.82212E-06
1028	2.19239E-06
1029	2.3246E-06
1030	7.08344E-06
1031	6.66497E-06
1032	7.03352E-06
1033	5.87789E-06
1034	2.17893E-06
1035	1.51041E-06
1036	2.70205E-06
1037	6.75519E-06
1038	6.35798E-06
1039	6.8174E-06
1040	7.85408E-06
1041	5.36231E-06
1042	1.5745E-06
1043	8.4968E-07
1044	2.2154E-06
1045	6.5806E-06
1046	5.89121E-06
1047	7.31764E-06
1048	6.88604E-06
1049	5.59852E-06
1050	1.11592E-06
1051	1.49884E-06
1052	5.56413E-06
1053	6.64957E-06
1054	5.45259E-06
1055	5.27865E-06
1056	5.64733E-06
1057	5.56368E-06
1058	4.68722E-06
1059	2.28566E-06
1060	6.26685E-06
1061	5.04894E-06
1062	5.98826E-06
1063	5.81438E-06
1064	6.03707E-06
1065	5.46624E-06
1066	4.86805E-06
1067	7.39869E-06
1068	6.17494E-06
1069	1.29214E-06
1070	4.36709E-06
1071	5.19493E-06
1072	5.37589E-06
1073	4.7359E-06
1074	6.09219E-06
1075	6.3494E-06
1076	5.54249E-06
1077	4.02662E-06
1078	1.81402E-06
1079	0.000005174
1080	5.49393E-06
1081	6.01543E-06
1082	7.33623E-06
1083	5.38259E-06
1084	5.77168E-06
1085	4.1797E-06
1086	8.5462E-07
1087	1.92634E-06
1088	6.13366E-06
1089	7.01688E-06
1090	5.57733E-06
1091	5.70239E-06
1092	5.60508E-06
1093	5.48672E-06
1094	5.52845E-06
1095	6.03629E-06
1096	6.72477E-06
1097	5.11147E-06
1098	5.27839E-06
1099	4.74286E-06
1100	5.42419E-06
1101	4.84023E-06
1102	3.81843E-06
1103	2.54521E-06
1104	5.93873E-06
1105	4.80545E-06
1106	4.97926E-06
1107	5.3339E-06
1108	5.13916E-06
1109	5.62588E-06
1110	6.43916E-06
1111	7.06453E-06
1112	5.33358E-06
1113	3.92971E-06
1114	1.6692E-06
1115	5.03497E-06
1116	5.26448E-06
1117	5.49387E-06
1118	5.47313E-06
1119	5.93905E-06
1120	5.27833E-06
1121	4.99324E-06
1122	5.39637E-06
1123	5.52169E-06
1124	6.00841E-06
1125	6.43981E-06
1126	6.88435E-06
1127	7.14168E-06
1128	4.05438E-06
1129	1.81409E-06
1130	3.28198E-06
1131	6.23168E-06
1132	6.75337E-06
1133	6.03655E-06
1134	4.79161E-06
1135	6.41758E-06
1136	8.09354E-06
1137	9.78575E-06
1138	6.77437E-06
1139	3.54595E-06
1140	3.8664E-06
1141	3.44201E-06
1142	2.73956E-06
1143	2.28722E-06
1144	2.2804E-06
1145	1.05586E-06
1146	8.2628E-07
1147	2.38407E-06
1148	5.91871E-06
1149	5.80717E-06
1150	5.04888E-06
1151	5.36881E-06
1152	5.5915E-06
1153	6.49565E-06
1154	5.96707E-06
1155	4.2837E-06
1156	2.54326E-06
1157	4.95853E-06
1158	4.701E-06
1159	5.21599E-06
1160	4.67318E-06
1161	4.86805E-06
1162	5.83525E-06
1163	6.02303E-06
1164	5.46644E-06
1165	5.26474E-06
1166	5.16731E-06
1167	5.34125E-06
1168	5.07676E-06
1169	5.46637E-06
1170	6.08556E-06
1171	5.85637E-06
1172	5.43205E-06
1173	4.52686E-06
1174	4.51295E-06
1175	4.68007E-06
1176	4.93766E-06
1177	5.20228E-06
1178	4.75664E-06
1179	5.16055E-06
1180	5.13968E-06
1181	4.51282E-06
1182	3.99055E-06
1183	4.25523E-06
1184	4.99337E-06
1185	4.96555E-06
1186	5.73151E-06
1187	5.43907E-06
1188	4.58244E-06
1189	4.86109E-06
1190	4.90289E-06
1191	4.70776E-06
1192	5.24433E-06
1193	6.07347E-06
1194	5.92703E-06
1195	5.02132E-06
1196	4.90289E-06
1197	4.73564E-06
1198	5.09093E-06
1199	6.53998E-06
1200	7.13271E-06
1201	5.38376E-06
1202	5.0492E-06
1203	4.64503E-06
1204	5.21651E-06
1205	5.26533E-06
1206	4.86805E-06
1207	3.27854E-06
1208	3.66171E-06
1209	5.18876E-06
1210	4.54727E-06
1211	4.90289E-06
1212	4.85407E-06
1213	4.84712E-06
1214	5.05622E-06
1215	5.54424E-06
1216	6.0465E-06
1217	6.01153E-06
1218	5.43283E-06
1219	5.6979E-06
1220	4.78433E-06
1221	3.38254E-06
1222	3.79412E-06
1223	5.78136E-06
1224	5.63511E-06
1225	5.59338E-06
1226	6.79978E-06
1227	6.32522E-06
1228	5.03536E-06
1229	5.40495E-06
1230	5.55146E-06
1231	5.1818E-06
1232	4.7634E-06
1233	5.01449E-06
1234	4.53323E-06
1235	4.67974E-06
1236	4.86805E-06
1237	4.51926E-06
1238	3.63311E-06
1239	3.9886E-06
1240	5.58688E-06
1241	5.53098E-06
1242	5.37043E-06
1243	5.92144E-06
1244	6.36786E-06
1245	7.03053E-06
1246	6.15849E-06
1247	3.16557E-06
1248	8.0574E-07
1249	4.9179E-07
1250	2.95562E-06
1251	4.63762E-06
1252	4.84705E-06
1253	4.65849E-06
1254	5.00071E-06
1255	8.06553E-06
1256	9.07712E-06
1257	5.99892E-06
1258	3.89753E-06
1259	4.44912E-06
1260	4.65862E-06
1261	4.83314E-06
1262	5.50336E-06
1263	5.59416E-06
1264	5.58708E-06
1265	6.31287E-06
1266	7.18556E-06
1267	5.75471E-06
1268	2.44459E-06
1269	1.66257E-06
1270	3.58358E-06
1271	4.90295E-06
1272	5.66378E-06
1273	6.313E-06
1274	5.62198E-06
1275	5.03555E-06
1276	5.14729E-06
1277	5.81048E-06
1278	6.16662E-06
1279	6.30611E-06
1280	6.24319E-06
1281	3.95317E-06
1282	2.10899E-06
1283	3.63877E-06
1284	4.79817E-06
1285	5.03562E-06
1286	6.55785E-06
1287	7.84251E-06
1288	8.96662E-06
1289	8.40801E-06
1290	5.69218E-06
1291	4.27421E-06
1292	4.11353E-06
1293	4.10664E-06
1294	4.4629E-06
1295	4.35104E-06
1296	4.40687E-06
1297	3.41458E-06
1298	3.88973E-06
1299	6.16018E-06
1300	5.6292E-06
1301	4.79817E-06
1302	4.83308E-06
1303	5.06363E-06
1304	4.61656E-06
1305	4.55358E-06
1306	4.90295E-06
1307	5.01469E-06
1308	5.1194E-06
1309	5.41275E-06
1310	6.46757E-06
1311	6.13925E-06
1312	4.74227E-06
1313	1.84951E-06
1314	1.18554E-06
1315	4.21837E-06
1316	5.52448E-06
1317	5.84584E-06
1318	5.24524E-06
1319	5.48282E-06
1320	5.74132E-06
1321	5.13351E-06
1322	5.02873E-06
1323	5.72735E-06
1324	6.09759E-06
1325	6.83833E-06
1326	6.34238E-06
1327	6.47504E-06
1328	7.18062E-06
1329	7.41852E-06
1330	7.02039E-06
1331	4.23202E-06
1332	2.67332E-06
1333	8.97325E-07
1334	5.135E-08
1335	9.88585E-07
1336	4.6165E-06
1337	5.8879E-06
1338	5.94373E-06
1339	6.51671E-06
1340	7.62067E-06
1341	6.50273E-06
1342	5.08463E-06
1343	4.4488E-06
1344	5.30121E-06
1345	5.68568E-06
1346	6.54524E-06
1347	7.63445E-06
1348	5.29406E-06
1349	2.7718E-06
1350	1.06392E-06
1351	1.7693E-06
1352	4.63034E-06
1353	6.19554E-06
1354	6.68369E-06
1355	4.9727E-06
1356	4.35845E-06
1357	4.09156E-06
1358	3.19501E-06
1359	4.17625E-06
1360	5.02171E-06
1361	5.18187E-06
1362	7.07876E-06
1363	7.03378E-06
1364	4.42052E-06
1365	4.12009E-06
1366	4.72823E-06
1367	5.88842E-06
1368	4.41389E-06
1369	4.45575E-06
1370	3.56785E-06
1371	3.44182E-06
1372	0.000003484
1373	5.44863E-06
1374	8.0173E-06
1375	7.08513E-06
1376	6.25931E-06
1377	2.27936E-06
1378	2.5714E-06
1379	5.09184E-06
1380	7.16086E-06
1381	5.26585E-06
1382	3.98177E-06
1383	4.13504E-06
1384	7.47559E-06
1385	6.52067E-06
1386	5.35106E-06
1387	4.63015E-06
1388	5.44804E-06
1389	3.85496E-06
1390	4.57418E-06
1391	3.31448E-06
1392	2.95965E-06
1393	4.05756E-06
1394	6.73335E-06
1395	7.54962E-06
1396	4.41422E-06
1397	3.07717E-06
1398	5.72949E-06
1399	4.73519E-06
1400	4.49885E-06
1401	3.52872E-06
1402	5.13396E-06
1403	6.58327E-06
1404	6.81759E-06
1405	6.67596E-06
1406	6.23019E-06
1407	5.64402E-06
1408	2.29528E-06
1409	2.73644E-06
1410	5.39923E-06
1411	7.02195E-06
1412	3.38488E-06
1413	2.98831E-06
1414	2.64869E-06
1415	2.34098E-06
1416	5.65084E-06
1417	7.65037E-06
1418	7.22956E-06
1419	3.68076E-06
1420	3.6103E-06
1421	4.22487E-06
1422	3.82616E-06
1423	3.05773E-06
1424	2.33181E-06
1425	2.60371E-06
1426	6.96521E-06
1427	7.8169E-06
1428	8.54945E-06
1429	9.84867E-06
1430	9.31723E-06
1431	4.51867E-06
1432	4.70035E-06
1433	4.02942E-06
1434	4.68631E-06
1435	3.98717E-06
1436	4.09227E-06
1437	4.79817E-06
1438	4.68631E-06
1439	3.75005E-06
1440	3.58872E-06
1441	2.82731E-06
1442	7.08936E-06
1443	8.76389E-06
1444	7.36769E-06
1445	4.40011E-06
1446	2.43744E-06
1447	3.31663E-06
1448	2.26057E-06
1449	2.56854E-06
1450	3.65944E-06
1451	6.59978E-06
1452	8.59814E-06
1453	9.32692E-06
1454	7.99825E-06
1455	7.21585E-06
1456	3.41484E-06
1457	2.89036E-06
1458	2.78434E-06
1459	5.84649E-06
1460	9.39439E-06
1461	5.96492E-06
1462	3.11409E-06
1463	2.95354E-06
1464	2.4013E-06
1465	4.56762E-06
1466	8.56206E-06
1467	9.72017E-06
1468	7.27695E-06
1469	5.01469E-06
1470	4.12068E-06
1471	3.94596E-06
1472	3.58235E-06
1473	3.54738E-06
1474	3.44942E-06
1475	3.75681E-06
1476	2.12225E-06
1477	2.26174E-06
1478	3.86217E-06
1479	7.91174E-06
1480	8.1497E-06
1481	8.69421E-06
1482	8.21971E-06
1483	4.5396E-06
1484	3.33808E-06
1485	3.70162E-06
1486	3.64598E-06
1487	3.10122E-06
1488	3.12215E-06
1489	3.03089E-06
1490	2.74456E-06
1491	2.07305E-06
1492	6.6053E-07
1493	2.84161E-06
1494	7.26993E-06
1495	7.78577E-06
1496	7.86266E-06
1497	8.98001E-06
1498	7.29053E-06
1499	3.08061E-06
1500	3.97443E-06
1501	3.06664E-06
1502	3.0316E-06
1503	2.12336E-06
1504	2.52792E-06
1505	5.84558E-06
1506	9.26562E-06
1507	6.75968E-06
1508	7.2554E-06
1509	8.4804E-06
1510	1.22495E-05
1511	2.1231E-05
1512	3.47982E-05
1513	0.000052729
1514	0.0000824
1515	0.000128262
1516	0.00016922
1517	0.00024281
1518	0.00029661
1519	0.00063937
1520	0.00115264
1521	0.00098191
1522	0.00102488
1523	0.00096263
1524	0.00066515
1525	0.00023768
1526	0.00054598
1527	0.00090886
1528	0.0008949
1529	0.00076717
1530	0.00081548
1531	0.00086273
1532	0.00090571
1533	0.00094651
1534	0.00100667
1535	0.00098947
1536	0.00072102
1537	0.00069096
1538	0.00077362
1539	0.00074141
1540	0.00082942
1541	0.00075107
1542	0.00079402
1543	0.00088853
1544	0.00077363
1545	0.00082518
1546	0.00086059
1547	0.00084553
1548	0.0008423
1549	0.0008906
1550	0.00097218
1551	0.00091317
1552	0.00095293
1553	0.00088423
1554	0.00048151
1555	0.00017971
1556	0.00053526
1557	0.0009572
1558	0.00090781
