284.90028490028504,0.055285175891504765
290.59829059829076,0.07495189347366224
297.7207977207978,0.10325546420254013
306.2678062678064,0.1411124127072783
316.2393162393164,0.19284900003945243
327.63532763532777,0.2635539716365327
339.03133903133914,0.3601817792738373
351.8518518518519,0.484414786529291
364.6723646723648,0.6620176453242664
380.3418803418804,0.8903591319497727
396.01139601139613,1.2070885501416335
414.5299145299146,1.6234345432955797
434.4729344729345,2.183385565256236
458.68945868945866,2.913049242743242
484.3304843304844,3.824799691444385
515.6695156695157,4.981857539430187
551.2820512820513,6.385830565986004
592.5925925925926,7.927393838463523
636.7521367521365,9.530823671189907
688.034188034188,11.008778417915781
740.7407407407406,12.11932022547686
794.8717948717945,13.025146259486467
851.8518518518515,13.449175233292461
907.4074074074069,13.557322060574185
962.9629629629626,13.23546276044391
1019.9430199430194,12.81817176714451
1074.0740740740735,12.315010390717697
1129.6296296296293,11.737219254280202
1188.0341880341875,11.008778417915792
1253.5612535612531,10.243179483751934
